numarator 7/simulation/qsim/numarator7.msim.vcd
$comment
	File created using the following command:
		vcd file numarator7.msim.vcd -direction
$end
$date
	Thu Feb 16 10:37:28 2023
$end
$version
	ModelSim Version 2020.1
$end
$timescale
	1ps
$end

$scope module numarator7_vhd_vec_tst $end
$var wire 1 ! pin_name1 $end
$var wire 1 " q0 $end
$var wire 1 # q1 $end
$var wire 1 $ q2 $end

$scope module i1 $end
$var wire 1 % gnd $end
$var wire 1 & vcc $end
$var wire 1 ' unknown $end
$var wire 1 ( devoe $end
$var wire 1 ) devclrn $end
$var wire 1 * devpor $end
$var wire 1 + ww_devoe $end
$var wire 1 , ww_devclrn $end
$var wire 1 - ww_devpor $end
$var wire 1 . ww_q0 $end
$var wire 1 / ww_pin_name1 $end
$var wire 1 0 ww_q1 $end
$var wire 1 1 ww_q2 $end
$var wire 1 2 \pin_name1~inputclkctrl_INCLK_bus\ [3] $end
$var wire 1 3 \pin_name1~inputclkctrl_INCLK_bus\ [2] $end
$var wire 1 4 \pin_name1~inputclkctrl_INCLK_bus\ [1] $end
$var wire 1 5 \pin_name1~inputclkctrl_INCLK_bus\ [0] $end
$var wire 1 6 \q0~output_o\ $end
$var wire 1 7 \q1~output_o\ $end
$var wire 1 8 \q2~output_o\ $end
$var wire 1 9 \pin_name1~input_o\ $end
$var wire 1 : \pin_name1~inputclkctrl_outclk\ $end
$var wire 1 ; \inst1~0_combout\ $end
$var wire 1 < \inst1~q\ $end
$var wire 1 = \inst2~0_combout\ $end
$var wire 1 > \inst2~q\ $end
$var wire 1 ? \inst~0_combout\ $end
$var wire 1 @ \inst~q\ $end
$upscope $end
$upscope $end
$enddefinitions $end
#0
$dumpvars
0!
0"
0#
0$
0%
1&
x'
1(
1)
1*
1+
1,
1-
0.
0/
00
01
06
07
08
09
0:
0;
0<
0=
0>
1?
0@
12
13
14
05
$end
#5000
1!
1/
19
15
1:
1@
1;
0?
16
1.
1"
#10000
0!
0/
09
05
0:
#15000
1!
1/
19
15
1:
1<
0@
1?
06
17
0.
10
0"
1#
#20000
0!
0/
09
05
0:
#25000
1!
1/
19
15
1:
1@
0;
1=
0?
16
1.
1"
#30000
0!
0/
09
05
0:
#35000
1!
1/
19
15
1:
0<
1>
0@
1?
06
18
07
0.
11
00
0"
1$
0#
#40000
0!
0/
09
05
0:
#45000
1!
1/
19
15
1:
1@
1;
0?
16
1.
1"
#50000
0!
0/
09
05
0:
#55000
1!
1/
19
15
1:
1<
0@
0;
0=
06
17
0.
10
0"
1#
#60000
0!
0/
09
05
0:
#65000
1!
1/
19
15
1:
0<
0>
1?
08
07
01
00
0$
0#
#70000
0!
0/
09
05
0:
#75000
1!
1/
19
15
1:
1@
1;
0?
16
1.
1"
#80000
0!
0/
09
05
0:
#85000
1!
1/
19
15
1:
1<
0@
1?
06
17
0.
10
0"
1#
#90000
0!
0/
09
05
0:
#95000
1!
1/
19
15
1:
1@
0;
1=
0?
16
1.
1"
#100000
0!
0/
09
05
0:
#105000
1!
1/
19
15
1:
0<
1>
0@
1?
06
18
07
0.
11
00
0"
1$
0#
#110000
0!
0/
09
05
0:
#115000
1!
1/
19
15
1:
1@
1;
0?
16
1.
1"
#120000
0!
0/
09
05
0:
#125000
1!
1/
19
15
1:
1<
0@
0;
0=
06
17
0.
10
0"
1#
#130000
0!
0/
09
05
0:
#135000
1!
1/
19
15
1:
0<
0>
1?
08
07
01
00
0$
0#
#140000
0!
0/
09
05
0:
#145000
1!
1/
19
15
1:
1@
1;
0?
16
1.
1"
#150000
0!
0/
09
05
0:
#155000
1!
1/
19
15
1:
1<
0@
1?
06
17
0.
10
0"
1#
#160000
0!
0/
09
05
0:
#165000
1!
1/
19
15
1:
1@
0;
1=
0?
16
1.
1"
#170000
0!
0/
09
05
0:
#175000
1!
1/
19
15
1:
0<
1>
0@
1?
06
18
07
0.
11
00
0"
1$
0#
#180000
0!
0/
09
05
0:
#185000
1!
1/
19
15
1:
1@
1;
0?
16
1.
1"
#190000
0!
0/
09
05
0:
#195000
1!
1/
19
15
1:
1<
0@
0;
0=
06
17
0.
10
0"
1#
#200000
0!
0/
09
05
0:
#205000
1!
1/
19
15
1:
0<
0>
1?
08
07
01
00
0$
0#
#210000
0!
0/
09
05
0:
#215000
1!
1/
19
15
1:
1@
1;
0?
16
1.
1"
#220000
0!
0/
09
05
0:
#225000
1!
1/
19
15
1:
1<
0@
1?
06
17
0.
10
0"
1#
#230000
0!
0/
09
05
0:
#235000
1!
1/
19
15
1:
1@
0;
1=
0?
16
1.
1"
#240000
0!
0/
09
05
0:
#245000
1!
1/
19
15
1:
0<
1>
0@
1?
06
18
07
0.
11
00
0"
1$
0#
#250000
0!
0/
09
05
0:
#255000
1!
1/
19
15
1:
1@
1;
0?
16
1.
1"
#260000
0!
0/
09
05
0:
#265000
1!
1/
19
15
1:
1<
0@
0;
0=
06
17
0.
10
0"
1#
#270000
0!
0/
09
05
0:
#275000
1!
1/
19
15
1:
0<
0>
1?
08
07
01
00
0$
0#
#280000
0!
0/
09
05
0:
#285000
1!
1/
19
15
1:
1@
1;
0?
16
1.
1"
#290000
0!
0/
09
05
0:
#295000
1!
1/
19
15
1:
1<
0@
1?
06
17
0.
10
0"
1#
#300000
0!
0/
09
05
0:
#305000
1!
1/
19
15
1:
1@
0;
1=
0?
16
1.
1"
#310000
0!
0/
09
05
0:
#315000
1!
1/
19
15
1:
0<
1>
0@
1?
06
18
07
0.
11
00
0"
1$
0#
#320000
0!
0/
09
05
0:
#325000
1!
1/
19
15
1:
1@
1;
0?
16
1.
1"
#330000
0!
0/
09
05
0:
#335000
1!
1/
19
15
1:
1<
0@
0;
0=
06
17
0.
10
0"
1#
#340000
0!
0/
09
05
0:
#345000
1!
1/
19
15
1:
0<
0>
1?
08
07
01
00
0$
0#
#350000
0!
0/
09
05
0:
#355000
1!
1/
19
15
1:
1@
1;
0?
16
1.
1"
#360000
0!
0/
09
05
0:
#365000
1!
1/
19
15
1:
1<
0@
1?
06
17
0.
10
0"
1#
#370000
0!
0/
09
05
0:
#375000
1!
1/
19
15
1:
1@
0;
1=
0?
16
1.
1"
#380000
0!
0/
09
05
0:
#385000
1!
1/
19
15
1:
0<
1>
0@
1?
06
18
07
0.
11
00
0"
1$
0#
#390000
0!
0/
09
05
0:
#395000
1!
1/
19
15
1:
1@
1;
0?
16
1.
1"
#400000
0!
0/
09
05
0:
#405000
1!
1/
19
15
1:
1<
0@
0;
0=
06
17
0.
10
0"
1#
#410000
0!
0/
09
05
0:
#415000
1!
1/
19
15
1:
0<
0>
1?
08
07
01
00
0$
0#
#420000
0!
0/
09
05
0:
#425000
1!
1/
19
15
1:
1@
1;
0?
16
1.
1"
#430000
0!
0/
09
05
0:
#435000
1!
1/
19
15
1:
1<
0@
1?
06
17
0.
10
0"
1#
#440000
0!
0/
09
05
0:
#445000
1!
1/
19
15
1:
1@
0;
1=
0?
16
1.
1"
#450000
0!
0/
09
05
0:
#455000
1!
1/
19
15
1:
0<
1>
0@
1?
06
18
07
0.
11
00
0"
1$
0#
#460000
0!
0/
09
05
0:
#465000
1!
1/
19
15
1:
1@
1;
0?
16
1.
1"
#470000
0!
0/
09
05
0:
#475000
1!
1/
19
15
1:
1<
0@
0;
0=
06
17
0.
10
0"
1#
#480000
0!
0/
09
05
0:
#485000
1!
1/
19
15
1:
0<
0>
1?
08
07
01
00
0$
0#
#490000
0!
0/
09
05
0:
#495000
1!
1/
19
15
1:
1@
1;
0?
16
1.
1"
#500000
0!
0/
09
05
0:
#505000
1!
1/
19
15
1:
1<
0@
1?
06
17
0.
10
0"
1#
#510000
0!
0/
09
05
0:
#515000
1!
1/
19
15
1:
1@
0;
1=
0?
16
1.
1"
#520000
0!
0/
09
05
0:
#525000
1!
1/
19
15
1:
0<
1>
0@
1?
06
18
07
0.
11
00
0"
1$
0#
#530000
0!
0/
09
05
0:
#535000
1!
1/
19
15
1:
1@
1;
0?
16
1.
1"
#540000
0!
0/
09
05
0:
#545000
1!
1/
19
15
1:
1<
0@
0;
0=
06
17
0.
10
0"
1#
#550000
0!
0/
09
05
0:
#555000
1!
1/
19
15
1:
0<
0>
1?
08
07
01
00
0$
0#
#560000
0!
0/
09
05
0:
#565000
1!
1/
19
15
1:
1@
1;
0?
16
1.
1"
#570000
0!
0/
09
05
0:
#575000
1!
1/
19
15
1:
1<
0@
1?
06
17
0.
10
0"
1#
#580000
0!
0/
09
05
0:
#585000
1!
1/
19
15
1:
1@
0;
1=
0?
16
1.
1"
#590000
0!
0/
09
05
0:
#595000
1!
1/
19
15
1:
0<
1>
0@
1?
06
18
07
0.
11
00
0"
1$
0#
#600000
0!
0/
09
05
0:
#605000
1!
1/
19
15
1:
1@
1;
0?
16
1.
1"
#610000
0!
0/
09
05
0:
#615000
1!
1/
19
15
1:
1<
0@
0;
0=
06
17
0.
10
0"
1#
#620000
0!
0/
09
05
0:
#625000
1!
1/
19
15
1:
0<
0>
1?
08
07
01
00
0$
0#
#630000
0!
0/
09
05
0:
#635000
1!
1/
19
15
1:
1@
1;
0?
16
1.
1"
#640000
0!
0/
09
05
0:
#645000
1!
1/
19
15
1:
1<
0@
1?
06
17
0.
10
0"
1#
#650000
0!
0/
09
05
0:
#655000
1!
1/
19
15
1:
1@
0;
1=
0?
16
1.
1"
#660000
0!
0/
09
05
0:
#665000
1!
1/
19
15
1:
0<
1>
0@
1?
06
18
07
0.
11
00
0"
1$
0#
#670000
0!
0/
09
05
0:
#675000
1!
1/
19
15
1:
1@
1;
0?
16
1.
1"
#680000
0!
0/
09
05
0:
#685000
1!
1/
19
15
1:
1<
0@
0;
0=
06
17
0.
10
0"
1#
#690000
0!
0/
09
05
0:
#695000
1!
1/
19
15
1:
0<
0>
1?
08
07
01
00
0$
0#
#700000
0!
0/
09
05
0:
#705000
1!
1/
19
15
1:
1@
1;
0?
16
1.
1"
#710000
0!
0/
09
05
0:
#715000
1!
1/
19
15
1:
1<
0@
1?
06
17
0.
10
0"
1#
#720000
0!
0/
09
05
0:
#725000
1!
1/
19
15
1:
1@
0;
1=
0?
16
1.
1"
#730000
0!
0/
09
05
0:
#735000
1!
1/
19
15
1:
0<
1>
0@
1?
06
18
07
0.
11
00
0"
1$
0#
#740000
0!
0/
09
05
0:
#745000
1!
1/
19
15
1:
1@
1;
0?
16
1.
1"
#750000
0!
0/
09
05
0:
#755000
1!
1/
19
15
1:
1<
0@
0;
0=
06
17
0.
10
0"
1#
#760000
0!
0/
09
05
0:
#765000
1!
1/
19
15
1:
0<
0>
1?
08
07
01
00
0$
0#
#770000
0!
0/
09
05
0:
#775000
1!
1/
19
15
1:
1@
1;
0?
16
1.
1"
#780000
0!
0/
09
05
0:
#785000
1!
1/
19
15
1:
1<
0@
1?
06
17
0.
10
0"
1#
#790000
0!
0/
09
05
0:
#795000
1!
1/
19
15
1:
1@
0;
1=
0?
16
1.
1"
#800000
0!
0/
09
05
0:
#805000
1!
1/
19
15
1:
0<
1>
0@
1?
06
18
07
0.
11
00
0"
1$
0#
#810000
0!
0/
09
05
0:
#815000
1!
1/
19
15
1:
1@
1;
0?
16
1.
1"
#820000
0!
0/
09
05
0:
#825000
1!
1/
19
15
1:
1<
0@
0;
0=
06
17
0.
10
0"
1#
#830000
0!
0/
09
05
0:
#835000
1!
1/
19
15
1:
0<
0>
1?
08
07
01
00
0$
0#
#840000
0!
0/
09
05
0:
#845000
1!
1/
19
15
1:
1@
1;
0?
16
1.
1"
#850000
0!
0/
09
05
0:
#855000
1!
1/
19
15
1:
1<
0@
1?
06
17
0.
10
0"
1#
#860000
0!
0/
09
05
0:
#865000
1!
1/
19
15
1:
1@
0;
1=
0?
16
1.
1"
#870000
0!
0/
09
05
0:
#875000
1!
1/
19
15
1:
0<
1>
0@
1?
06
18
07
0.
11
00
0"
1$
0#
#880000
0!
0/
09
05
0:
#885000
1!
1/
19
15
1:
1@
1;
0?
16
1.
1"
#890000
0!
0/
09
05
0:
#895000
1!
1/
19
15
1:
1<
0@
0;
0=
06
17
0.
10
0"
1#
#900000
0!
0/
09
05
0:
#905000
1!
1/
19
15
1:
0<
0>
1?
08
07
01
00
0$
0#
#910000
0!
0/
09
05
0:
#915000
1!
1/
19
15
1:
1@
1;
0?
16
1.
1"
#920000
0!
0/
09
05
0:
#925000
1!
1/
19
15
1:
1<
0@
1?
06
17
0.
10
0"
1#
#930000
0!
0/
09
05
0:
#935000
1!
1/
19
15
1:
1@
0;
1=
0?
16
1.
1"
#940000
0!
0/
09
05
0:
#945000
1!
1/
19
15
1:
0<
1>
0@
1?
06
18
07
0.
11
00
0"
1$
0#
#950000
0!
0/
09
05
0:
#955000
1!
1/
19
15
1:
1@
1;
0?
16
1.
1"
#960000
0!
0/
09
05
0:
#965000
1!
1/
19
15
1:
1<
0@
0;
0=
06
17
0.
10
0"
1#
#970000
0!
0/
09
05
0:
#975000
1!
1/
19
15
1:
0<
0>
1?
08
07
01
00
0$
0#
#980000
0!
0/
09
05
0:
#985000
1!
1/
19
15
1:
1@
1;
0?
16
1.
1"
#990000
0!
0/
09
05
0:
#995000
1!
1/
19
15
1:
1<
0@
1?
06
17
0.
10
0"
1#
