numarator 10/simulation/qsim/numaratormodulo10.msim.vcd
$comment
	File created using the following command:
		vcd file numaratormodulo10.msim.vcd -direction
$end
$date
	Tue Feb 14 17:23:00 2023
$end
$version
	ModelSim Version 2020.1
$end
$timescale
	1ps
$end

$scope module numaratormodulo10_vhd_vec_tst $end
$var wire 1 ! pin_name1 $end
$var wire 1 " pin_name2 $end
$var wire 1 # pin_name3 $end
$var wire 1 $ pin_name4 $end
$var wire 1 % pin_name5 $end

$scope module i1 $end
$var wire 1 & gnd $end
$var wire 1 ' vcc $end
$var wire 1 ( unknown $end
$var wire 1 ) devoe $end
$var wire 1 * devclrn $end
$var wire 1 + devpor $end
$var wire 1 , ww_devoe $end
$var wire 1 - ww_devclrn $end
$var wire 1 . ww_devpor $end
$var wire 1 / ww_pin_name2 $end
$var wire 1 0 ww_pin_name1 $end
$var wire 1 1 ww_pin_name3 $end
$var wire 1 2 ww_pin_name4 $end
$var wire 1 3 ww_pin_name5 $end
$var wire 1 4 \pin_name1~inputclkctrl_INCLK_bus\ [3] $end
$var wire 1 5 \pin_name1~inputclkctrl_INCLK_bus\ [2] $end
$var wire 1 6 \pin_name1~inputclkctrl_INCLK_bus\ [1] $end
$var wire 1 7 \pin_name1~inputclkctrl_INCLK_bus\ [0] $end
$var wire 1 8 \pin_name2~output_o\ $end
$var wire 1 9 \pin_name3~output_o\ $end
$var wire 1 : \pin_name4~output_o\ $end
$var wire 1 ; \pin_name5~output_o\ $end
$var wire 1 < \pin_name1~input_o\ $end
$var wire 1 = \pin_name1~inputclkctrl_outclk\ $end
$var wire 1 > \inst~0_combout\ $end
$var wire 1 ? \inst~q\ $end
$var wire 1 @ \inst1~0_combout\ $end
$var wire 1 A \inst1~q\ $end
$var wire 1 B \inst2~0_combout\ $end
$var wire 1 C \inst2~q\ $end
$var wire 1 D \inst3~0_combout\ $end
$var wire 1 E \inst3~q\ $end
$upscope $end
$upscope $end
$enddefinitions $end
#0
$dumpvars
0!
0"
0#
0$
0%
0&
1'
x(
1)
1*
1+
1,
1-
1.
0/
00
01
02
03
08
09
0:
0;
0<
0=
1>
0?
0@
0A
0B
0C
0D
0E
14
15
16
07
$end
#10000
1!
10
1<
17
1=
1?
0>
1@
1;
13
1%
#20000
0!
00
0<
07
0=
#30000
1!
10
1<
17
1=
0?
1A
1>
1:
0;
12
03
1$
0%
#40000
0!
00
0<
07
0=
#50000
1!
10
1<
17
1=
1?
0>
0@
1B
1;
13
1%
#60000
0!
00
0<
07
0=
#70000
1!
10
1<
17
1=
0?
0A
1C
1>
19
0:
0;
11
02
03
1#
0$
0%
#80000
0!
00
0<
07
0=
#90000
1!
10
1<
17
1=
1?
0>
1@
1;
13
1%
#100000
0!
00
0<
07
0=
#110000
1!
10
1<
17
1=
0?
1A
1>
1:
0;
12
03
1$
0%
#120000
0!
00
0<
07
0=
#130000
1!
10
1<
17
1=
1?
0>
0@
0B
1D
1;
13
1%
#140000
0!
00
0<
07
0=
#150000
1!
10
1<
17
1=
0?
0A
0C
1E
1>
18
09
0:
0;
1/
01
02
03
1"
0#
0$
0%
#160000
0!
00
0<
07
0=
#170000
1!
10
1<
17
1=
1?
0>
0D
1;
13
1%
#180000
0!
00
0<
07
0=
#190000
1!
10
1<
17
1=
0?
0E
1>
08
0;
0/
03
0"
0%
#200000
0!
00
0<
07
0=
#210000
1!
10
1<
17
1=
1?
0>
1@
1;
13
1%
#220000
0!
00
0<
07
0=
#230000
1!
10
1<
17
1=
0?
1A
1>
1:
0;
12
03
1$
0%
#240000
0!
00
0<
07
0=
#250000
1!
10
1<
17
1=
1?
0>
0@
1B
1;
13
1%
#260000
0!
00
0<
07
0=
#270000
1!
10
1<
17
1=
0?
0A
1C
1>
19
0:
0;
11
02
03
1#
0$
0%
#280000
0!
00
0<
07
0=
#290000
1!
10
1<
17
1=
1?
0>
1@
1;
13
1%
#300000
0!
00
0<
07
0=
#310000
1!
10
1<
17
1=
0?
1A
1>
1:
0;
12
03
1$
0%
#320000
0!
00
0<
07
0=
#330000
1!
10
1<
17
1=
1?
0>
0@
0B
1D
1;
13
1%
#340000
0!
00
0<
07
0=
#350000
1!
10
1<
17
1=
0?
0A
0C
1E
1>
18
09
0:
0;
1/
01
02
03
1"
0#
0$
0%
#360000
0!
00
0<
07
0=
#370000
1!
10
1<
17
1=
1?
0>
0D
1;
13
1%
#380000
0!
00
0<
07
0=
#390000
1!
10
1<
17
1=
0?
0E
1>
08
0;
0/
03
0"
0%
#400000
0!
00
0<
07
0=
#410000
1!
10
1<
17
1=
1?
0>
1@
1;
13
1%
#420000
0!
00
0<
07
0=
#430000
1!
10
1<
17
1=
0?
1A
1>
1:
0;
12
03
1$
0%
#440000
0!
00
0<
07
0=
#450000
1!
10
1<
17
1=
1?
0>
0@
1B
1;
13
1%
#460000
0!
00
0<
07
0=
#470000
1!
10
1<
17
1=
0?
0A
1C
1>
19
0:
0;
11
02
03
1#
0$
0%
#480000
0!
00
0<
07
0=
#490000
1!
10
1<
17
1=
1?
0>
1@
1;
13
1%
#500000
0!
00
0<
07
0=
#510000
1!
10
1<
17
1=
0?
1A
1>
1:
0;
12
03
1$
0%
#520000
0!
00
0<
07
0=
#530000
1!
10
1<
17
1=
1?
0>
0@
0B
1D
1;
13
1%
#540000
0!
00
0<
07
0=
#550000
1!
10
1<
17
1=
0?
0A
0C
1E
1>
18
09
0:
0;
1/
01
02
03
1"
0#
0$
0%
#560000
0!
00
0<
07
0=
#570000
1!
10
1<
17
1=
1?
0>
0D
1;
13
1%
#580000
0!
00
0<
07
0=
#590000
1!
10
1<
17
1=
0?
0E
1>
08
0;
0/
03
0"
0%
#600000
0!
00
0<
07
0=
#610000
1!
10
1<
17
1=
1?
0>
1@
1;
13
1%
#620000
0!
00
0<
07
0=
#630000
1!
10
1<
17
1=
0?
1A
1>
1:
0;
12
03
1$
0%
#640000
0!
00
0<
07
0=
#650000
1!
10
1<
17
1=
1?
0>
0@
1B
1;
13
1%
#660000
0!
00
0<
07
0=
#670000
1!
10
1<
17
1=
0?
0A
1C
1>
19
0:
0;
11
02
03
1#
0$
0%
#680000
0!
00
0<
07
0=
#690000
1!
10
1<
17
1=
1?
0>
1@
1;
13
1%
#700000
0!
00
0<
07
0=
#710000
1!
10
1<
17
1=
0?
1A
1>
1:
0;
12
03
1$
0%
#720000
0!
00
0<
07
0=
#730000
1!
10
1<
17
1=
1?
0>
0@
0B
1D
1;
13
1%
#740000
0!
00
0<
07
0=
#750000
1!
10
1<
17
1=
0?
0A
0C
1E
1>
18
09
0:
0;
1/
01
02
03
1"
0#
0$
0%
#760000
0!
00
0<
07
0=
#770000
1!
10
1<
17
1=
1?
0>
0D
1;
13
1%
#780000
0!
00
0<
07
0=
#790000
1!
10
1<
17
1=
0?
0E
1>
08
0;
0/
03
0"
0%
#800000
0!
00
0<
07
0=
#810000
1!
10
1<
17
1=
1?
0>
1@
1;
13
1%
#820000
0!
00
0<
07
0=
#830000
1!
10
1<
17
1=
0?
1A
1>
1:
0;
12
03
1$
0%
#840000
0!
00
0<
07
0=
#850000
1!
10
1<
17
1=
1?
0>
0@
1B
1;
13
1%
#860000
0!
00
0<
07
0=
#870000
1!
10
1<
17
1=
0?
0A
1C
1>
19
0:
0;
11
02
03
1#
0$
0%
#880000
0!
00
0<
07
0=
#890000
1!
10
1<
17
1=
1?
0>
1@
1;
13
1%
#900000
0!
00
0<
07
0=
#910000
1!
10
1<
17
1=
0?
1A
1>
1:
0;
12
03
1$
0%
#920000
0!
00
0<
07
0=
#930000
1!
10
1<
17
1=
1?
0>
0@
0B
1D
1;
13
1%
#940000
0!
00
0<
07
0=
#950000
1!
10
1<
17
1=
0?
0A
0C
1E
1>
18
09
0:
0;
1/
01
02
03
1"
0#
0$
0%
#960000
0!
00
0<
07
0=
#970000
1!
10
1<
17
1=
1?
0>
0D
1;
13
1%
#980000
0!
00
0<
07
0=
#990000
1!
10
1<
17
1=
0?
0E
1>
08
0;
0/
03
0"
0%
