Numarator invers/simulation/qsim/numaratorinvers.msim.vcd
$comment
	File created using the following command:
		vcd file numaratorinvers.msim.vcd -direction
$end
$date
	Wed Feb 15 18:13:07 2023
$end
$version
	ModelSim Version 2020.1
$end
$timescale
	1ps
$end

$scope module numaratorinvers_vhd_vec_tst $end
$var wire 1 ! clk $end
$var wire 1 " ds0 $end
$var wire 1 # ds1 $end
$var wire 1 $ ds2 $end
$var wire 1 % ds3 $end
$var wire 1 & reset $end
$var wire 1 ' s0 $end
$var wire 1 ( s1 $end
$var wire 1 ) s2 $end
$var wire 1 * s3 $end
$var wire 1 + zs0 $end
$var wire 1 , zs1 $end
$var wire 1 - zs2 $end

$scope module i1 $end
$var wire 1 . gnd $end
$var wire 1 / vcc $end
$var wire 1 0 unknown $end
$var wire 1 1 devoe $end
$var wire 1 2 devclrn $end
$var wire 1 3 devpor $end
$var wire 1 4 ww_devoe $end
$var wire 1 5 ww_devclrn $end
$var wire 1 6 ww_devpor $end
$var wire 1 7 ww_ds1 $end
$var wire 1 8 ww_clk $end
$var wire 1 9 ww_reset $end
$var wire 1 : ww_ds0 $end
$var wire 1 ; ww_ds3 $end
$var wire 1 < ww_ds2 $end
$var wire 1 = ww_s1 $end
$var wire 1 > ww_s2 $end
$var wire 1 ? ww_s0 $end
$var wire 1 @ ww_s3 $end
$var wire 1 A ww_zs2 $end
$var wire 1 B ww_zs1 $end
$var wire 1 C ww_zs0 $end
$var wire 1 D \reset~inputclkctrl_INCLK_bus\ [3] $end
$var wire 1 E \reset~inputclkctrl_INCLK_bus\ [2] $end
$var wire 1 F \reset~inputclkctrl_INCLK_bus\ [1] $end
$var wire 1 G \reset~inputclkctrl_INCLK_bus\ [0] $end
$var wire 1 H \inst1|inst3~clkctrl_INCLK_bus\ [3] $end
$var wire 1 I \inst1|inst3~clkctrl_INCLK_bus\ [2] $end
$var wire 1 J \inst1|inst3~clkctrl_INCLK_bus\ [1] $end
$var wire 1 K \inst1|inst3~clkctrl_INCLK_bus\ [0] $end
$var wire 1 L \inst2|inst3~clkctrl_INCLK_bus\ [3] $end
$var wire 1 M \inst2|inst3~clkctrl_INCLK_bus\ [2] $end
$var wire 1 N \inst2|inst3~clkctrl_INCLK_bus\ [1] $end
$var wire 1 O \inst2|inst3~clkctrl_INCLK_bus\ [0] $end
$var wire 1 P \clk~inputclkctrl_INCLK_bus\ [3] $end
$var wire 1 Q \clk~inputclkctrl_INCLK_bus\ [2] $end
$var wire 1 R \clk~inputclkctrl_INCLK_bus\ [1] $end
$var wire 1 S \clk~inputclkctrl_INCLK_bus\ [0] $end
$var wire 1 T \ds1~output_o\ $end
$var wire 1 U \ds0~output_o\ $end
$var wire 1 V \ds3~output_o\ $end
$var wire 1 W \ds2~output_o\ $end
$var wire 1 X \s1~output_o\ $end
$var wire 1 Y \s2~output_o\ $end
$var wire 1 Z \s0~output_o\ $end
$var wire 1 [ \s3~output_o\ $end
$var wire 1 \ \zs2~output_o\ $end
$var wire 1 ] \zs1~output_o\ $end
$var wire 1 ^ \zs0~output_o\ $end
$var wire 1 _ \clk~input_o\ $end
$var wire 1 ` \clk~inputclkctrl_outclk\ $end
$var wire 1 a \inst1|inst~0_combout\ $end
$var wire 1 b \reset~input_o\ $end
$var wire 1 c \reset~inputclkctrl_outclk\ $end
$var wire 1 d \inst1|inst~q\ $end
$var wire 1 e \inst1|inst3~0_combout\ $end
$var wire 1 f \inst1|inst3~feeder_combout\ $end
$var wire 1 g \inst1|inst3~q\ $end
$var wire 1 h \inst1|inst2~0_combout\ $end
$var wire 1 i \inst1|inst2~feeder_combout\ $end
$var wire 1 j \inst1|inst2~q\ $end
$var wire 1 k \inst1|inst1~0_combout\ $end
$var wire 1 l \inst1|inst1~feeder_combout\ $end
$var wire 1 m \inst1|inst1~q\ $end
$var wire 1 n \inst1|inst3~clkctrl_outclk\ $end
$var wire 1 o \inst2|inst~0_combout\ $end
$var wire 1 p \inst2|inst~q\ $end
$var wire 1 q \inst2|inst2~0_combout\ $end
$var wire 1 r \inst2|inst2~feeder_combout\ $end
$var wire 1 s \inst2|inst2~q\ $end
$var wire 1 t \inst2|inst3~0_combout\ $end
$var wire 1 u \inst2|inst3~feeder_combout\ $end
$var wire 1 v \inst2|inst3~q\ $end
$var wire 1 w \inst2|inst1~0_combout\ $end
$var wire 1 x \inst2|inst1~feeder_combout\ $end
$var wire 1 y \inst2|inst1~q\ $end
$var wire 1 z \inst2|inst3~clkctrl_outclk\ $end
$var wire 1 { \inst3|inst~0_combout\ $end
$var wire 1 | \inst3|inst~q\ $end
$var wire 1 } \inst3|inst1~0_combout\ $end
$var wire 1 ~ \inst3|inst1~q\ $end
$var wire 1 !! \inst3|inst2~0_combout\ $end
$var wire 1 "! \inst3|inst2~q\ $end
$var wire 1 #! \ALT_INV_clk~inputclkctrl_outclk\ $end
$var wire 1 $! \inst2|ALT_INV_inst3~clkctrl_outclk\ $end
$var wire 1 %! \inst1|ALT_INV_inst3~clkctrl_outclk\ $end
$upscope $end
$upscope $end
$enddefinitions $end
#0
$dumpvars
0!
0"
0#
0$
0%
0&
0'
0(
0)
0*
0+
0,
0-
0.
1/
x0
11
12
13
14
15
16
07
08
09
0:
0;
0<
0=
0>
0?
0@
0A
0B
0C
0T
0U
0V
0W
0X
0Y
0Z
0[
0\
0]
0^
0_
0`
1a
0b
0c
0d
1e
1f
0g
0h
0i
0j
0k
0l
0m
0n
1o
0p
0q
0r
0s
1t
1u
0v
0w
0x
0y
0z
1{
0|
0}
0~
1!!
0"!
1#!
1$!
1%!
1P
1Q
1R
0S
1D
1E
1F
0G
1H
1I
1J
0K
1L
1M
1N
0O
$end
#10000
1!
18
1_
1S
1`
0#!
#20000
0!
1&
08
19
1b
0_
1G
0S
0`
1c
1#!
1d
1g
1K
0a
1n
1V
1U
0%!
1;
1:
1%
1"
#30000
1!
18
1_
1S
1`
0#!
#40000
0!
08
0_
0S
0`
1#!
0d
1a
0e
1h
1k
1l
1i
0f
0U
0:
0"
#50000
1!
18
1_
1S
1`
0#!
#60000
0!
08
0_
0S
0`
1#!
1d
0g
1j
1m
0K
0a
1T
1W
0n
0V
1U
1%!
17
1<
0;
1:
1#
1$
0%
1"
1p
1v
1O
0o
1z
1[
1Z
0$!
1@
1?
1*
1'
#70000
1!
18
1_
1S
1`
0#!
#80000
0!
08
0_
0S
0`
1#!
0d
1a
0k
0l
0U
0:
0"
#90000
1!
18
1_
1S
1`
0#!
#100000
0!
08
0_
0S
0`
1#!
1d
0m
0a
0T
1U
07
1:
0#
1"
#110000
1!
18
1_
1S
1`
0#!
#120000
0!
08
0_
0S
0`
1#!
0d
1a
0h
1k
1l
0i
0U
0:
0"
#130000
1!
18
1_
1S
1`
0#!
#140000
0!
08
0_
0S
0`
1#!
1d
0j
1m
0a
1T
0W
1U
17
0<
1:
1#
0$
1"
#150000
1!
18
1_
1S
1`
0#!
#160000
0!
08
0_
0S
0`
1#!
0d
1a
0k
0l
0U
0:
0"
#170000
1!
18
1_
1S
1`
0#!
#180000
0!
08
0_
0S
0`
1#!
1d
0m
0a
0T
1U
07
1:
0#
1"
#190000
1!
18
1_
1S
1`
0#!
#200000
0!
08
0_
0S
0`
1#!
0d
1a
1e
1f
0U
0:
0"
#210000
1!
18
1_
1S
1`
0#!
#220000
0!
08
0_
0S
0`
1#!
1d
1g
1K
0a
1n
1V
1U
0%!
1;
1:
1%
1"
#230000
1!
18
1_
1S
1`
0#!
#240000
0!
08
0_
0S
0`
1#!
0d
1a
0e
1h
1k
1l
1i
0f
0U
0:
0"
#250000
1!
18
1_
1S
1`
0#!
#260000
0!
08
0_
0S
0`
1#!
1d
0g
1j
1m
0K
0a
1T
1W
0n
0V
1U
1%!
17
1<
0;
1:
1#
1$
0%
1"
0p
1o
1q
0t
1w
1x
0u
1r
0Z
0?
0'
#270000
1!
18
1_
1S
1`
0#!
#280000
0!
08
0_
0S
0`
1#!
0d
1a
0k
0l
0U
0:
0"
#290000
1!
18
1_
1S
1`
0#!
#300000
0!
08
0_
0S
0`
1#!
1d
0m
0a
0T
1U
07
1:
0#
1"
#310000
1!
18
1_
1S
1`
0#!
#320000
0!
08
0_
0S
0`
1#!
0d
1a
0h
1k
1l
0i
0U
0:
0"
#330000
1!
18
1_
1S
1`
0#!
#340000
0!
08
0_
0S
0`
1#!
1d
0j
1m
0a
1T
0W
1U
17
0<
1:
1#
0$
1"
#350000
1!
18
1_
1S
1`
0#!
#360000
0!
08
0_
0S
0`
1#!
0d
1a
0k
0l
0U
0:
0"
#370000
1!
18
1_
1S
1`
0#!
#380000
0!
08
0_
0S
0`
1#!
1d
0m
0a
0T
1U
07
1:
0#
1"
#390000
1!
18
1_
1S
1`
0#!
#400000
0!
08
0_
0S
0`
1#!
0d
1a
1e
1f
0U
0:
0"
#410000
1!
18
1_
1S
1`
0#!
#420000
0!
08
0_
0S
0`
1#!
1d
1g
1K
0a
1n
1V
1U
0%!
1;
1:
1%
1"
#430000
1!
18
1_
1S
1`
0#!
#440000
0!
08
0_
0S
0`
1#!
0d
1a
0e
1h
1k
1l
1i
0f
0U
0:
0"
#450000
1!
18
1_
1S
1`
0#!
#460000
0!
08
0_
0S
0`
1#!
1d
0g
1j
1m
0K
0a
1T
1W
0n
0V
1U
1%!
17
1<
0;
1:
1#
1$
0%
1"
1p
1s
0v
1y
0O
0o
1X
0z
0[
1Y
1Z
1$!
1=
0@
1>
1?
1(
0*
1)
1'
1|
1"!
0{
1\
1^
1A
1C
1-
1+
#470000
1!
18
1_
1S
1`
0#!
#480000
0!
08
0_
0S
0`
1#!
0d
1a
0k
0l
0U
0:
0"
#490000
1!
18
1_
1S
1`
0#!
#500000
0!
08
0_
0S
0`
1#!
1d
0m
0a
0T
1U
07
1:
0#
1"
#510000
1!
18
1_
1S
1`
0#!
#520000
0!
08
0_
0S
0`
1#!
0d
1a
0h
1k
1l
0i
0U
0:
0"
#530000
1!
18
1_
1S
1`
0#!
#540000
0!
08
0_
0S
0`
1#!
1d
0j
1m
0a
1T
0W
1U
17
0<
1:
1#
0$
1"
#550000
1!
18
1_
1S
1`
0#!
#560000
0!
08
0_
0S
0`
1#!
0d
1a
0k
0l
0U
0:
0"
#570000
1!
18
1_
1S
1`
0#!
#580000
0!
08
0_
0S
0`
1#!
1d
0m
0a
0T
1U
07
1:
0#
1"
#590000
1!
18
1_
1S
1`
0#!
#600000
0!
08
0_
0S
0`
1#!
0d
1a
1e
1f
0U
0:
0"
#610000
1!
18
1_
1S
1`
0#!
#620000
0!
08
0_
0S
0`
1#!
1d
1g
1K
0a
1n
1V
1U
0%!
1;
1:
1%
1"
#630000
1!
18
1_
1S
1`
0#!
#640000
0!
08
0_
0S
0`
1#!
0d
1a
0e
1h
1k
1l
1i
0f
0U
0:
0"
#650000
1!
18
1_
1S
1`
0#!
#660000
0!
08
0_
0S
0`
1#!
1d
0g
1j
1m
0K
0a
1T
1W
0n
0V
1U
1%!
17
1<
0;
1:
1#
1$
0%
1"
0p
1o
0w
0x
0Z
0?
0'
#670000
1!
18
1_
1S
1`
0#!
#680000
0!
08
0_
0S
0`
1#!
0d
1a
0k
0l
0U
0:
0"
#690000
1!
18
1_
1S
1`
0#!
#700000
0!
08
0_
0S
0`
1#!
1d
0m
0a
0T
1U
07
1:
0#
1"
#710000
1!
18
1_
1S
1`
0#!
#720000
0!
08
0_
0S
0`
1#!
0d
1a
0h
1k
1l
0i
0U
0:
0"
#730000
1!
18
1_
1S
1`
0#!
#740000
0!
08
0_
0S
0`
1#!
1d
0j
1m
0a
1T
0W
1U
17
0<
1:
1#
0$
1"
#750000
1!
18
1_
1S
1`
0#!
#760000
0!
08
0_
0S
0`
1#!
0d
1a
0k
0l
0U
0:
0"
#770000
1!
18
1_
1S
1`
0#!
#780000
0!
08
0_
0S
0`
1#!
1d
0m
0a
0T
1U
07
1:
0#
1"
#790000
1!
18
1_
1S
1`
0#!
#800000
0!
08
0_
0S
0`
1#!
0d
1a
1e
1f
0U
0:
0"
#810000
1!
18
1_
1S
1`
0#!
#820000
0!
08
0_
0S
0`
1#!
1d
1g
1K
0a
1n
1V
1U
0%!
1;
1:
1%
1"
#830000
1!
18
1_
1S
1`
0#!
#840000
0!
08
0_
0S
0`
1#!
0d
1a
0e
1h
1k
1l
1i
0f
0U
0:
0"
#850000
1!
18
1_
1S
1`
0#!
#860000
0!
08
0_
0S
0`
1#!
1d
0g
1j
1m
0K
0a
1T
1W
0n
0V
1U
1%!
17
1<
0;
1:
1#
1$
0%
1"
1p
0y
0o
0X
1Z
0=
1?
0(
1'
#870000
1!
18
1_
1S
1`
0#!
#880000
0!
08
0_
0S
0`
1#!
0d
1a
0k
0l
0U
0:
0"
#890000
1!
18
1_
1S
1`
0#!
#900000
0!
08
0_
0S
0`
1#!
1d
0m
0a
0T
1U
07
1:
0#
1"
#910000
1!
18
1_
1S
1`
0#!
#920000
0!
08
0_
0S
0`
1#!
0d
1a
0h
1k
1l
0i
0U
0:
0"
#930000
1!
18
1_
1S
1`
0#!
#940000
0!
08
0_
0S
0`
1#!
1d
0j
1m
0a
1T
0W
1U
17
0<
1:
1#
0$
1"
#950000
1!
18
1_
1S
1`
0#!
#960000
0!
08
0_
0S
0`
1#!
0d
1a
0k
0l
0U
0:
0"
#970000
1!
18
1_
1S
1`
0#!
#980000
0!
08
0_
0S
0`
1#!
1d
0m
0a
0T
1U
07
1:
0#
1"
#990000
1!
18
1_
1S
1`
0#!
