db/BCD7SEGMENTE/simulation/qsim/BCD7SEGMENTEANOD.msim.vcd
$comment
	File created using the following command:
		vcd file BCD7SEGMENTEANOD.msim.vcd -direction
$end
$date
	Wed Feb 15 21:56:13 2023
$end
$version
	ModelSim Version 2020.1
$end
$timescale
	1ps
$end

$scope module bcd7segmenteanod_vhd_vec_tst $end
$var wire 1 ! a $end
$var wire 1 " A1 $end
$var wire 1 # b $end
$var wire 1 $ B1 $end
$var wire 1 % c $end
$var wire 1 & C1 $end
$var wire 1 ' d $end
$var wire 1 ( D1 $end
$var wire 1 ) e $end
$var wire 1 * f $end
$var wire 1 + g $end

$scope module i1 $end
$var wire 1 , gnd $end
$var wire 1 - vcc $end
$var wire 1 . unknown $end
$var wire 1 / devoe $end
$var wire 1 0 devclrn $end
$var wire 1 1 devpor $end
$var wire 1 2 ww_devoe $end
$var wire 1 3 ww_devclrn $end
$var wire 1 4 ww_devpor $end
$var wire 1 5 ww_a $end
$var wire 1 6 ww_A1 $end
$var wire 1 7 ww_C1 $end
$var wire 1 8 ww_D1 $end
$var wire 1 9 ww_B1 $end
$var wire 1 : ww_b $end
$var wire 1 ; ww_c $end
$var wire 1 < ww_d $end
$var wire 1 = ww_e $end
$var wire 1 > ww_f $end
$var wire 1 ? ww_g $end
$var wire 1 @ \a~output_o\ $end
$var wire 1 A \b~output_o\ $end
$var wire 1 B \c~output_o\ $end
$var wire 1 C \d~output_o\ $end
$var wire 1 D \e~output_o\ $end
$var wire 1 E \f~output_o\ $end
$var wire 1 F \g~output_o\ $end
$var wire 1 G \A1~input_o\ $end
$var wire 1 H \B1~input_o\ $end
$var wire 1 I \D1~input_o\ $end
$var wire 1 J \C1~input_o\ $end
$var wire 1 K \inst9~combout\ $end
$var wire 1 L \inst18~0_combout\ $end
$var wire 1 M \inst36~0_combout\ $end
$var wire 1 N \inst39~0_combout\ $end
$var wire 1 O \inst27~combout\ $end
$var wire 1 P \inst31~0_combout\ $end
$var wire 1 Q \inst34~combout\ $end
$upscope $end
$upscope $end
$enddefinitions $end
#0
$dumpvars
0!
0"
0#
0$
0%
0&
0'
0(
0)
0*
1+
0,
1-
x.
1/
10
11
12
13
14
05
06
07
08
09
0:
0;
0<
0=
0>
1?
0@
0A
0B
0C
0D
0E
1F
0G
0H
0I
0J
0K
0L
0M
0N
0O
0P
1Q
$end
#5000
1"
16
1G
1K
1N
1O
1P
1E
1D
1C
1@
1>
1=
1<
15
1*
1)
1'
1!
#10000
0"
1$
06
19
1H
0G
0K
1M
0N
0O
0Q
0F
0D
0C
1B
0@
0?
0=
0<
1;
05
0+
0)
0'
1%
0!
#15000
1"
16
1G
0M
1O
1D
0B
1=
0;
1)
0%
#20000
0"
0$
1&
06
09
17
1J
0H
0G
1K
1N
0P
0E
1C
1@
0>
1<
15
0*
1'
1!
#25000
1"
16
1G
0K
1L
0N
0C
1A
0@
0<
1:
05
0'
1#
0!
#30000
0"
1$
06
19
1H
0G
1K
0O
0D
1@
0=
15
0)
1!
#35000
1"
16
1G
0K
0L
1N
1O
1P
1Q
1F
1E
1D
1C
0A
0@
1?
1>
1=
1<
0:
05
1+
1*
1)
1'
0#
0!
#40000
0"
0$
0&
1(
06
09
07
18
1I
0J
0H
0G
0N
0O
0P
0Q
0F
0E
0D
0C
0?
0>
0=
0<
0+
0*
0)
0'
#45000
1"
16
1G
1N
1O
1D
1C
1=
1<
1)
1'
#50000
0"
1$
06
19
1H
0G
1M
0N
0O
1P
1E
0D
0C
1B
1>
0=
0<
1;
1*
0)
0'
1%
#55000
1"
16
1G
0M
1O
1D
0B
1=
0;
1)
0%
#60000
0"
0$
1&
06
09
17
1J
0H
0G
1K
1N
0P
0E
1C
1@
0>
1<
15
0*
1'
1!
#65000
1"
16
1G
0K
1L
0N
0C
1A
0@
0<
1:
05
0'
1#
0!
#70000
0"
1$
06
19
1H
0G
1K
0O
0D
1@
0=
15
0)
1!
#75000
1"
16
1G
0K
0L
1N
1O
1P
1Q
1F
1E
1D
1C
0A
0@
1?
1>
1=
1<
0:
05
1+
1*
1)
1'
0#
0!
#80000
0"
0$
0&
0(
06
09
07
08
0I
0J
0H
0G
0N
0O
0P
0E
0D
0C
0>
0=
0<
0*
0)
0'
#85000
1"
16
1G
1K
1N
1O
1P
1E
1D
1C
1@
1>
1=
1<
15
1*
1)
1'
1!
#90000
0"
1$
06
19
1H
0G
0K
1M
0N
0O
0Q
0F
0D
0C
1B
0@
0?
0=
0<
1;
05
0+
0)
0'
1%
0!
#95000
1"
16
1G
0M
1O
1D
0B
1=
0;
1)
0%
#100000
0"
0$
1&
06
09
17
1J
0H
0G
1K
1N
0P
0E
1C
1@
0>
1<
15
0*
1'
1!
#105000
1"
16
1G
0K
1L
0N
0C
1A
0@
0<
1:
05
0'
1#
0!
#110000
0"
1$
06
19
1H
0G
1K
0O
0D
1@
0=
15
0)
1!
#115000
1"
16
1G
0K
0L
1N
1O
1P
1Q
1F
1E
1D
1C
0A
0@
1?
1>
1=
1<
0:
05
1+
1*
1)
1'
0#
0!
#120000
0"
0$
0&
1(
06
09
07
18
1I
0J
0H
0G
0N
0O
0P
0Q
0F
0E
0D
0C
0?
0>
0=
0<
0+
0*
0)
0'
#125000
1"
16
1G
1N
1O
1D
1C
1=
1<
1)
1'
#130000
0"
1$
06
19
1H
0G
1M
0N
0O
1P
1E
0D
0C
1B
1>
0=
0<
1;
1*
0)
0'
1%
#135000
1"
16
1G
0M
1O
1D
0B
1=
0;
1)
0%
#140000
0"
0$
1&
06
09
17
1J
0H
0G
1K
1N
0P
0E
1C
1@
0>
1<
15
0*
1'
1!
#145000
1"
16
1G
0K
1L
0N
0C
1A
0@
0<
1:
05
0'
1#
0!
#150000
0"
1$
06
19
1H
0G
1K
0O
0D
1@
0=
15
0)
1!
#155000
1"
16
1G
0K
0L
1N
1O
1P
1Q
1F
1E
1D
1C
0A
0@
1?
1>
1=
1<
0:
05
1+
1*
1)
1'
0#
0!
#160000
0"
0$
0&
0(
06
09
07
08
0I
0J
0H
0G
0N
0O
0P
0E
0D
0C
0>
0=
0<
0*
0)
0'
#165000
1"
16
1G
1K
1N
1O
1P
1E
1D
1C
1@
1>
1=
1<
15
1*
1)
1'
1!
#170000
0"
1$
06
19
1H
0G
0K
1M
0N
0O
0Q
0F
0D
0C
1B
0@
0?
0=
0<
1;
05
0+
0)
0'
1%
0!
#175000
1"
16
1G
0M
1O
1D
0B
1=
0;
1)
0%
#180000
0"
0$
1&
06
09
17
1J
0H
0G
1K
1N
0P
0E
1C
1@
0>
1<
15
0*
1'
1!
#185000
1"
16
1G
0K
1L
0N
0C
1A
0@
0<
1:
05
0'
1#
0!
#190000
0"
1$
06
19
1H
0G
1K
0O
0D
1@
0=
15
0)
1!
#195000
1"
16
1G
0K
0L
1N
1O
1P
1Q
1F
1E
1D
1C
0A
0@
1?
1>
1=
1<
0:
05
1+
1*
1)
1'
0#
0!
#200000
0"
0$
0&
1(
06
09
07
18
1I
0J
0H
0G
0N
0O
0P
0Q
0F
0E
0D
0C
0?
0>
0=
0<
0+
0*
0)
0'
#205000
1"
16
1G
1N
1O
1D
1C
1=
1<
1)
1'
#210000
0"
1$
06
19
1H
0G
1M
0N
0O
1P
1E
0D
0C
1B
1>
0=
0<
1;
1*
0)
0'
1%
#215000
1"
16
1G
0M
1O
1D
0B
1=
0;
1)
0%
#220000
0"
0$
1&
06
09
17
1J
0H
0G
1K
1N
0P
0E
1C
1@
0>
1<
15
0*
1'
1!
#225000
1"
16
1G
0K
1L
0N
0C
1A
0@
0<
1:
05
0'
1#
0!
#230000
0"
1$
06
19
1H
0G
1K
0O
0D
1@
0=
15
0)
1!
#235000
1"
16
1G
0K
0L
1N
1O
1P
1Q
1F
1E
1D
1C
0A
0@
1?
1>
1=
1<
0:
05
1+
1*
1)
1'
0#
0!
#240000
0"
0$
0&
0(
06
09
07
08
0I
0J
0H
0G
0N
0O
0P
0E
0D
0C
0>
0=
0<
0*
0)
0'
#245000
1"
16
1G
1K
1N
1O
1P
1E
1D
1C
1@
1>
1=
1<
15
1*
1)
1'
1!
#250000
0"
1$
06
19
1H
0G
0K
1M
0N
0O
0Q
0F
0D
0C
1B
0@
0?
0=
0<
1;
05
0+
0)
0'
1%
0!
#255000
1"
16
1G
0M
1O
1D
0B
1=
0;
1)
0%
#260000
0"
0$
1&
06
09
17
1J
0H
0G
1K
1N
0P
0E
1C
1@
0>
1<
15
0*
1'
1!
#265000
1"
16
1G
0K
1L
0N
0C
1A
0@
0<
1:
05
0'
1#
0!
#270000
0"
1$
06
19
1H
0G
1K
0O
0D
1@
0=
15
0)
1!
#275000
1"
16
1G
0K
0L
1N
1O
1P
1Q
1F
1E
1D
1C
0A
0@
1?
1>
1=
1<
0:
05
1+
1*
1)
1'
0#
0!
#280000
0"
0$
0&
1(
06
09
07
18
1I
0J
0H
0G
0N
0O
0P
0Q
0F
0E
0D
0C
0?
0>
0=
0<
0+
0*
0)
0'
#285000
1"
16
1G
1N
1O
1D
1C
1=
1<
1)
1'
#290000
0"
1$
06
19
1H
0G
1M
0N
0O
1P
1E
0D
0C
1B
1>
0=
0<
1;
1*
0)
0'
1%
#295000
1"
16
1G
0M
1O
1D
0B
1=
0;
1)
0%
#300000
0"
0$
1&
06
09
17
1J
0H
0G
1K
1N
0P
0E
1C
1@
0>
1<
15
0*
1'
1!
#305000
1"
16
1G
0K
1L
0N
0C
1A
0@
0<
1:
05
0'
1#
0!
#310000
0"
1$
06
19
1H
0G
1K
0O
0D
1@
0=
15
0)
1!
#315000
1"
16
1G
0K
0L
1N
1O
1P
1Q
1F
1E
1D
1C
0A
0@
1?
1>
1=
1<
0:
05
1+
1*
1)
1'
0#
0!
#320000
0"
0$
0&
0(
06
09
07
08
0I
0J
0H
0G
0N
0O
0P
0E
0D
0C
0>
0=
0<
0*
0)
0'
#325000
1"
16
1G
1K
1N
1O
1P
1E
1D
1C
1@
1>
1=
1<
15
1*
1)
1'
1!
#330000
0"
1$
06
19
1H
0G
0K
1M
0N
0O
0Q
0F
0D
0C
1B
0@
0?
0=
0<
1;
05
0+
0)
0'
1%
0!
#335000
1"
16
1G
0M
1O
1D
0B
1=
0;
1)
0%
#340000
0"
0$
1&
06
09
17
1J
0H
0G
1K
1N
0P
0E
1C
1@
0>
1<
15
0*
1'
1!
#345000
1"
16
1G
0K
1L
0N
0C
1A
0@
0<
1:
05
0'
1#
0!
#350000
0"
1$
06
19
1H
0G
1K
0O
0D
1@
0=
15
0)
1!
#355000
1"
16
1G
0K
0L
1N
1O
1P
1Q
1F
1E
1D
1C
0A
0@
1?
1>
1=
1<
0:
05
1+
1*
1)
1'
0#
0!
#360000
0"
0$
0&
1(
06
09
07
18
1I
0J
0H
0G
0N
0O
0P
0Q
0F
0E
0D
0C
0?
0>
0=
0<
0+
0*
0)
0'
#365000
1"
16
1G
1N
1O
1D
1C
1=
1<
1)
1'
#370000
0"
1$
06
19
1H
0G
1M
0N
0O
1P
1E
0D
0C
1B
1>
0=
0<
1;
1*
0)
0'
1%
#375000
1"
16
1G
0M
1O
1D
0B
1=
0;
1)
0%
#380000
0"
0$
1&
06
09
17
1J
0H
0G
1K
1N
0P
0E
1C
1@
0>
1<
15
0*
1'
1!
#385000
1"
16
1G
0K
1L
0N
0C
1A
0@
0<
1:
05
0'
1#
0!
#390000
0"
1$
06
19
1H
0G
1K
0O
0D
1@
0=
15
0)
1!
#395000
1"
16
1G
0K
0L
1N
1O
1P
1Q
1F
1E
1D
1C
0A
0@
1?
1>
1=
1<
0:
05
1+
1*
1)
1'
0#
0!
#400000
0"
0$
0&
0(
06
09
07
08
0I
0J
0H
0G
0N
0O
0P
0E
0D
0C
0>
0=
0<
0*
0)
0'
#405000
1"
16
1G
1K
1N
1O
1P
1E
1D
1C
1@
1>
1=
1<
15
1*
1)
1'
1!
#410000
0"
1$
06
19
1H
0G
0K
1M
0N
0O
0Q
0F
0D
0C
1B
0@
0?
0=
0<
1;
05
0+
0)
0'
1%
0!
#415000
1"
16
1G
0M
1O
1D
0B
1=
0;
1)
0%
#420000
0"
0$
1&
06
09
17
1J
0H
0G
1K
1N
0P
0E
1C
1@
0>
1<
15
0*
1'
1!
#425000
1"
16
1G
0K
1L
0N
0C
1A
0@
0<
1:
05
0'
1#
0!
#430000
0"
1$
06
19
1H
0G
1K
0O
0D
1@
0=
15
0)
1!
#435000
1"
16
1G
0K
0L
1N
1O
1P
1Q
1F
1E
1D
1C
0A
0@
1?
1>
1=
1<
0:
05
1+
1*
1)
1'
0#
0!
#440000
0"
0$
0&
1(
06
09
07
18
1I
0J
0H
0G
0N
0O
0P
0Q
0F
0E
0D
0C
0?
0>
0=
0<
0+
0*
0)
0'
#445000
1"
16
1G
1N
1O
1D
1C
1=
1<
1)
1'
#450000
0"
1$
06
19
1H
0G
1M
0N
0O
1P
1E
0D
0C
1B
1>
0=
0<
1;
1*
0)
0'
1%
#455000
1"
16
1G
0M
1O
1D
0B
1=
0;
1)
0%
#460000
0"
0$
1&
06
09
17
1J
0H
0G
1K
1N
0P
0E
1C
1@
0>
1<
15
0*
1'
1!
#465000
1"
16
1G
0K
1L
0N
0C
1A
0@
0<
1:
05
0'
1#
0!
#470000
0"
1$
06
19
1H
0G
1K
0O
0D
1@
0=
15
0)
1!
#475000
1"
16
1G
0K
0L
1N
1O
1P
1Q
1F
1E
1D
1C
0A
0@
1?
1>
1=
1<
0:
05
1+
1*
1)
1'
0#
0!
#480000
0"
0$
0&
0(
06
09
07
08
0I
0J
0H
0G
0N
0O
0P
0E
0D
0C
0>
0=
0<
0*
0)
0'
#485000
1"
16
1G
1K
1N
1O
1P
1E
1D
1C
1@
1>
1=
1<
15
1*
1)
1'
1!
#490000
0"
1$
06
19
1H
0G
0K
1M
0N
0O
0Q
0F
0D
0C
1B
0@
0?
0=
0<
1;
05
0+
0)
0'
1%
0!
#495000
1"
16
1G
0M
1O
1D
0B
1=
0;
1)
0%
#500000
0"
0$
1&
06
09
17
1J
0H
0G
1K
1N
0P
0E
1C
1@
0>
1<
15
0*
1'
1!
#505000
1"
16
1G
0K
1L
0N
0C
1A
0@
0<
1:
05
0'
1#
0!
#510000
0"
1$
06
19
1H
0G
1K
0O
0D
1@
0=
15
0)
1!
#515000
1"
16
1G
0K
0L
1N
1O
1P
1Q
1F
1E
1D
1C
0A
0@
1?
1>
1=
1<
0:
05
1+
1*
1)
1'
0#
0!
#520000
0"
0$
0&
1(
06
09
07
18
1I
0J
0H
0G
0N
0O
0P
0Q
0F
0E
0D
0C
0?
0>
0=
0<
0+
0*
0)
0'
#525000
1"
16
1G
1N
1O
1D
1C
1=
1<
1)
1'
#530000
0"
1$
06
19
1H
0G
1M
0N
0O
1P
1E
0D
0C
1B
1>
0=
0<
1;
1*
0)
0'
1%
#535000
1"
16
1G
0M
1O
1D
0B
1=
0;
1)
0%
#540000
0"
0$
1&
06
09
17
1J
0H
0G
1K
1N
0P
0E
1C
1@
0>
1<
15
0*
1'
1!
#545000
1"
16
1G
0K
1L
0N
0C
1A
0@
0<
1:
05
0'
1#
0!
#550000
0"
1$
06
19
1H
0G
1K
0O
0D
1@
0=
15
0)
1!
#555000
1"
16
1G
0K
0L
1N
1O
1P
1Q
1F
1E
1D
1C
0A
0@
1?
1>
1=
1<
0:
05
1+
1*
1)
1'
0#
0!
#560000
0"
0$
0&
0(
06
09
07
08
0I
0J
0H
0G
0N
0O
0P
0E
0D
0C
0>
0=
0<
0*
0)
0'
#565000
1"
16
1G
1K
1N
1O
1P
1E
1D
1C
1@
1>
1=
1<
15
1*
1)
1'
1!
#570000
0"
1$
06
19
1H
0G
0K
1M
0N
0O
0Q
0F
0D
0C
1B
0@
0?
0=
0<
1;
05
0+
0)
0'
1%
0!
#575000
1"
16
1G
0M
1O
1D
0B
1=
0;
1)
0%
#580000
0"
0$
1&
06
09
17
1J
0H
0G
1K
1N
0P
0E
1C
1@
0>
1<
15
0*
1'
1!
#585000
1"
16
1G
0K
1L
0N
0C
1A
0@
0<
1:
05
0'
1#
0!
#590000
0"
1$
06
19
1H
0G
1K
0O
0D
1@
0=
15
0)
1!
#595000
1"
16
1G
0K
0L
1N
1O
1P
1Q
1F
1E
1D
1C
0A
0@
1?
1>
1=
1<
0:
05
1+
1*
1)
1'
0#
0!
#600000
0"
0$
0&
1(
06
09
07
18
1I
0J
0H
0G
0N
0O
0P
0Q
0F
0E
0D
0C
0?
0>
0=
0<
0+
0*
0)
0'
#605000
1"
16
1G
1N
1O
1D
1C
1=
1<
1)
1'
#610000
0"
1$
06
19
1H
0G
1M
0N
0O
1P
1E
0D
0C
1B
1>
0=
0<
1;
1*
0)
0'
1%
#615000
1"
16
1G
0M
1O
1D
0B
1=
0;
1)
0%
#620000
0"
0$
1&
06
09
17
1J
0H
0G
1K
1N
0P
0E
1C
1@
0>
1<
15
0*
1'
1!
#625000
1"
16
1G
0K
1L
0N
0C
1A
0@
0<
1:
05
0'
1#
0!
#630000
0"
1$
06
19
1H
0G
1K
0O
0D
1@
0=
15
0)
1!
#635000
1"
16
1G
0K
0L
1N
1O
1P
1Q
1F
1E
1D
1C
0A
0@
1?
1>
1=
1<
0:
05
1+
1*
1)
1'
0#
0!
#640000
0"
0$
0&
0(
06
09
07
08
0I
0J
0H
0G
0N
0O
0P
0E
0D
0C
0>
0=
0<
0*
0)
0'
#645000
1"
16
1G
1K
1N
1O
1P
1E
1D
1C
1@
1>
1=
1<
15
1*
1)
1'
1!
#650000
0"
1$
06
19
1H
0G
0K
1M
0N
0O
0Q
0F
0D
0C
1B
0@
0?
0=
0<
1;
05
0+
0)
0'
1%
0!
#655000
1"
16
1G
0M
1O
1D
0B
1=
0;
1)
0%
#660000
0"
0$
1&
06
09
17
1J
0H
0G
1K
1N
0P
0E
1C
1@
0>
1<
15
0*
1'
1!
#665000
1"
16
1G
0K
1L
0N
0C
1A
0@
0<
1:
05
0'
1#
0!
#670000
0"
1$
06
19
1H
0G
1K
0O
0D
1@
0=
15
0)
1!
#675000
1"
16
1G
0K
0L
1N
1O
1P
1Q
1F
1E
1D
1C
0A
0@
1?
1>
1=
1<
0:
05
1+
1*
1)
1'
0#
0!
#680000
0"
0$
0&
1(
06
09
07
18
1I
0J
0H
0G
0N
0O
0P
0Q
0F
0E
0D
0C
0?
0>
0=
0<
0+
0*
0)
0'
#685000
1"
16
1G
1N
1O
1D
1C
1=
1<
1)
1'
#690000
0"
1$
06
19
1H
0G
1M
0N
0O
1P
1E
0D
0C
1B
1>
0=
0<
1;
1*
0)
0'
1%
#695000
1"
16
1G
0M
1O
1D
0B
1=
0;
1)
0%
#700000
0"
0$
1&
06
09
17
1J
0H
0G
1K
1N
0P
0E
1C
1@
0>
1<
15
0*
1'
1!
#705000
1"
16
1G
0K
1L
0N
0C
1A
0@
0<
1:
05
0'
1#
0!
#710000
0"
1$
06
19
1H
0G
1K
0O
0D
1@
0=
15
0)
1!
#715000
1"
16
1G
0K
0L
1N
1O
1P
1Q
1F
1E
1D
1C
0A
0@
1?
1>
1=
1<
0:
05
1+
1*
1)
1'
0#
0!
#720000
0"
0$
0&
0(
06
09
07
08
0I
0J
0H
0G
0N
0O
0P
0E
0D
0C
0>
0=
0<
0*
0)
0'
#725000
1"
16
1G
1K
1N
1O
1P
1E
1D
1C
1@
1>
1=
1<
15
1*
1)
1'
1!
#730000
0"
1$
06
19
1H
0G
0K
1M
0N
0O
0Q
0F
0D
0C
1B
0@
0?
0=
0<
1;
05
0+
0)
0'
1%
0!
#735000
1"
16
1G
0M
1O
1D
0B
1=
0;
1)
0%
#740000
0"
0$
1&
06
09
17
1J
0H
0G
1K
1N
0P
0E
1C
1@
0>
1<
15
0*
1'
1!
#745000
1"
16
1G
0K
1L
0N
0C
1A
0@
0<
1:
05
0'
1#
0!
#750000
0"
1$
06
19
1H
0G
1K
0O
0D
1@
0=
15
0)
1!
#755000
1"
16
1G
0K
0L
1N
1O
1P
1Q
1F
1E
1D
1C
0A
0@
1?
1>
1=
1<
0:
05
1+
1*
1)
1'
0#
0!
#760000
0"
0$
0&
1(
06
09
07
18
1I
0J
0H
0G
0N
0O
0P
0Q
0F
0E
0D
0C
0?
0>
0=
0<
0+
0*
0)
0'
#765000
1"
16
1G
1N
1O
1D
1C
1=
1<
1)
1'
#770000
0"
1$
06
19
1H
0G
1M
0N
0O
1P
1E
0D
0C
1B
1>
0=
0<
1;
1*
0)
0'
1%
#775000
1"
16
1G
0M
1O
1D
0B
1=
0;
1)
0%
#780000
0"
0$
1&
06
09
17
1J
0H
0G
1K
1N
0P
0E
1C
1@
0>
1<
15
0*
1'
1!
#785000
1"
16
1G
0K
1L
0N
0C
1A
0@
0<
1:
05
0'
1#
0!
#790000
0"
1$
06
19
1H
0G
1K
0O
0D
1@
0=
15
0)
1!
#795000
1"
16
1G
0K
0L
1N
1O
1P
1Q
1F
1E
1D
1C
0A
0@
1?
1>
1=
1<
0:
05
1+
1*
1)
1'
0#
0!
#800000
0"
0$
0&
0(
06
09
07
08
0I
0J
0H
0G
0N
0O
0P
0E
0D
0C
0>
0=
0<
0*
0)
0'
#805000
1"
16
1G
1K
1N
1O
1P
1E
1D
1C
1@
1>
1=
1<
15
1*
1)
1'
1!
#810000
0"
1$
06
19
1H
0G
0K
1M
0N
0O
0Q
0F
0D
0C
1B
0@
0?
0=
0<
1;
05
0+
0)
0'
1%
0!
#815000
1"
16
1G
0M
1O
1D
0B
1=
0;
1)
0%
#820000
0"
0$
1&
06
09
17
1J
0H
0G
1K
1N
0P
0E
1C
1@
0>
1<
15
0*
1'
1!
#825000
1"
16
1G
0K
1L
0N
0C
1A
0@
0<
1:
05
0'
1#
0!
#830000
0"
1$
06
19
1H
0G
1K
0O
0D
1@
0=
15
0)
1!
#835000
1"
16
1G
0K
0L
1N
1O
1P
1Q
1F
1E
1D
1C
0A
0@
1?
1>
1=
1<
0:
05
1+
1*
1)
1'
0#
0!
#840000
0"
0$
0&
1(
06
09
07
18
1I
0J
0H
0G
0N
0O
0P
0Q
0F
0E
0D
0C
0?
0>
0=
0<
0+
0*
0)
0'
#845000
1"
16
1G
1N
1O
1D
1C
1=
1<
1)
1'
#850000
0"
1$
06
19
1H
0G
1M
0N
0O
1P
1E
0D
0C
1B
1>
0=
0<
1;
1*
0)
0'
1%
#855000
1"
16
1G
0M
1O
1D
0B
1=
0;
1)
0%
#860000
0"
0$
1&
06
09
17
1J
0H
0G
1K
1N
0P
0E
1C
1@
0>
1<
15
0*
1'
1!
#865000
1"
16
1G
0K
1L
0N
0C
1A
0@
0<
1:
05
0'
1#
0!
#870000
0"
1$
06
19
1H
0G
1K
0O
0D
1@
0=
15
0)
1!
#875000
1"
16
1G
0K
0L
1N
1O
1P
1Q
1F
1E
1D
1C
0A
0@
1?
1>
1=
1<
0:
05
1+
1*
1)
1'
0#
0!
#880000
0"
0$
0&
0(
06
09
07
08
0I
0J
0H
0G
0N
0O
0P
0E
0D
0C
0>
0=
0<
0*
0)
0'
#885000
1"
16
1G
1K
1N
1O
1P
1E
1D
1C
1@
1>
1=
1<
15
1*
1)
1'
1!
#890000
0"
1$
06
19
1H
0G
0K
1M
0N
0O
0Q
0F
0D
0C
1B
0@
0?
0=
0<
1;
05
0+
0)
0'
1%
0!
#895000
1"
16
1G
0M
1O
1D
0B
1=
0;
1)
0%
#900000
0"
0$
1&
06
09
17
1J
0H
0G
1K
1N
0P
0E
1C
1@
0>
1<
15
0*
1'
1!
#905000
1"
16
1G
0K
1L
0N
0C
1A
0@
0<
1:
05
0'
1#
0!
#910000
0"
1$
06
19
1H
0G
1K
0O
0D
1@
0=
15
0)
1!
#915000
1"
16
1G
0K
0L
1N
1O
1P
1Q
1F
1E
1D
1C
0A
0@
1?
1>
1=
1<
0:
05
1+
1*
1)
1'
0#
0!
#920000
0"
0$
0&
1(
06
09
07
18
1I
0J
0H
0G
0N
0O
0P
0Q
0F
0E
0D
0C
0?
0>
0=
0<
0+
0*
0)
0'
#925000
1"
16
1G
1N
1O
1D
1C
1=
1<
1)
1'
#930000
0"
1$
06
19
1H
0G
1M
0N
0O
1P
1E
0D
0C
1B
1>
0=
0<
1;
1*
0)
0'
1%
#935000
1"
16
1G
0M
1O
1D
0B
1=
0;
1)
0%
#940000
0"
0$
1&
06
09
17
1J
0H
0G
1K
1N
0P
0E
1C
1@
0>
1<
15
0*
1'
1!
#945000
1"
16
1G
0K
1L
0N
0C
1A
0@
0<
1:
05
0'
1#
0!
#950000
0"
1$
06
19
1H
0G
1K
0O
0D
1@
0=
15
0)
1!
#955000
1"
16
1G
0K
0L
1N
1O
1P
1Q
1F
1E
1D
1C
0A
0@
1?
1>
1=
1<
0:
05
1+
1*
1)
1'
0#
0!
#960000
0"
0$
0&
0(
06
09
07
08
0I
0J
0H
0G
0N
0O
0P
0E
0D
0C
0>
0=
0<
0*
0)
0'
#965000
1"
16
1G
1K
1N
1O
1P
1E
1D
1C
1@
1>
1=
1<
15
1*
1)
1'
1!
#970000
0"
1$
06
19
1H
0G
0K
1M
0N
0O
0Q
0F
0D
0C
1B
0@
0?
0=
0<
1;
05
0+
0)
0'
1%
0!
#975000
1"
16
1G
0M
1O
1D
0B
1=
0;
1)
0%
#980000
0"
0$
1&
06
09
17
1J
0H
0G
1K
1N
0P
0E
1C
1@
0>
1<
15
0*
1'
1!
#985000
1"
16
1G
0K
1L
0N
0C
1A
0@
0<
1:
05
0'
1#
0!
#990000
0"
1$
06
19
1H
0G
1K
0O
0D
1@
0=
15
0)
1!
#995000
1"
16
1G
0K
0L
1N
1O
1P
1Q
1F
1E
1D
1C
0A
0@
1?
1>
1=
1<
0:
05
1+
1*
1)
1'
0#
0!
