Divizor Frecventa/simulation/qsim/divizorfrecventa.msim.vcd
$comment
	File created using the following command:
		vcd file divizorfrecventa.msim.vcd -direction
$end
$date
	Wed Feb 15 12:10:46 2023
$end
$version
	ModelSim Version 2020.1
$end
$timescale
	1ps
$end

$scope module divizorfrecventa_vhd_vec_tst $end
$var wire 1 ! pin_name1 $end
$var wire 1 " pin_name2 $end

$scope module i1 $end
$var wire 1 # gnd $end
$var wire 1 $ vcc $end
$var wire 1 % unknown $end
$var wire 1 & devoe $end
$var wire 1 ' devclrn $end
$var wire 1 ( devpor $end
$var wire 1 ) ww_devoe $end
$var wire 1 * ww_devclrn $end
$var wire 1 + ww_devpor $end
$var wire 1 , ww_pin_name2 $end
$var wire 1 - ww_pin_name1 $end
$var wire 1 . \~QUARTUS_CREATED_GND~I_combout\ $end
$var wire 1 / \pin_name1~input_o\ $end
$var wire 1 0 \pin_name1~inputCLKENA0_outclk\ $end
$var wire 1 1 \inst3|inst~0_combout\ $end
$var wire 1 2 \inst3|inst~q\ $end
$var wire 1 3 \inst3|inst1~0_combout\ $end
$var wire 1 4 \inst3|inst1~q\ $end
$var wire 1 5 \inst3|inst2~0_combout\ $end
$var wire 1 6 \inst3|inst2~q\ $end
$var wire 1 7 \inst3|inst3~0_combout\ $end
$var wire 1 8 \inst3|inst3~feeder_combout\ $end
$var wire 1 9 \inst3|inst3~q\ $end
$var wire 1 : \inst|inst1~0_combout\ $end
$var wire 1 ; \inst|inst1~feeder_combout\ $end
$var wire 1 < \inst|inst1~q\ $end
$var wire 1 = \inst|inst~0_combout\ $end
$var wire 1 > \inst|inst~feeder_combout\ $end
$var wire 1 ? \inst|inst~q\ $end
$var wire 1 @ \inst|inst2~0_combout\ $end
$var wire 1 A \inst|inst2~feeder_combout\ $end
$var wire 1 B \inst|inst2~q\ $end
$var wire 1 C \inst8|inst~DUPLICATE_q\ $end
$var wire 1 D \inst8|inst~0_combout\ $end
$var wire 1 E \inst8|inst~feeder_combout\ $end
$var wire 1 F \inst8|inst~q\ $end
$var wire 1 G \inst8|inst1~feeder_combout\ $end
$var wire 1 H \inst8|inst1~q\ $end
$var wire 1 I \inst9|inst~0_combout\ $end
$var wire 1 J \inst9|inst~q\ $end
$var wire 1 K \inst9|inst1~0_combout\ $end
$var wire 1 L \inst9|inst1~q\ $end
$var wire 1 M \inst9|inst~DUPLICATE_q\ $end
$var wire 1 N \inst9|inst2~0_combout\ $end
$var wire 1 O \inst9|inst2~q\ $end
$var wire 1 P \inst9|inst3~0_combout\ $end
$var wire 1 Q \inst9|inst3~feeder_combout\ $end
$var wire 1 R \inst9|inst3~q\ $end
$var wire 1 S \inst10|inst~0_combout\ $end
$var wire 1 T \inst10|inst~q\ $end
$var wire 1 U \inst10|inst1~0_combout\ $end
$var wire 1 V \inst10|inst1~q\ $end
$var wire 1 W \inst10|inst2~0_combout\ $end
$var wire 1 X \inst10|inst2~feeder_combout\ $end
$var wire 1 Y \inst10|inst2~q\ $end
$var wire 1 Z \inst10|inst3~0_combout\ $end
$var wire 1 [ \inst10|inst3~q\ $end
$var wire 1 \ \inst11|inst~DUPLICATE_q\ $end
$var wire 1 ] \inst11|inst~0_combout\ $end
$var wire 1 ^ \inst11|inst~feeder_combout\ $end
$var wire 1 _ \inst11|inst~q\ $end
$var wire 1 ` \inst11|inst1~0_combout\ $end
$var wire 1 a \inst11|inst1~feeder_combout\ $end
$var wire 1 b \inst11|inst1~q\ $end
$var wire 1 c \inst11|inst2~0_combout\ $end
$var wire 1 d \inst11|inst2~feeder_combout\ $end
$var wire 1 e \inst11|inst2~q\ $end
$var wire 1 f \inst11|inst3~0_combout\ $end
$var wire 1 g \inst11|inst3~q\ $end
$var wire 1 h \inst12|inst~DUPLICATE_q\ $end
$var wire 1 i \inst12|inst~0_combout\ $end
$var wire 1 j \inst12|inst~feeder_combout\ $end
$var wire 1 k \inst12|inst~q\ $end
$var wire 1 l \inst12|inst1~0_combout\ $end
$var wire 1 m \inst12|inst1~q\ $end
$var wire 1 n \inst12|inst2~0_combout\ $end
$var wire 1 o \inst12|inst2~q\ $end
$var wire 1 p \inst12|inst3~0_combout\ $end
$var wire 1 q \inst12|inst3~q\ $end
$var wire 1 r \inst8|ALT_INV_inst~DUPLICATE_q\ $end
$var wire 1 s \inst9|ALT_INV_inst~DUPLICATE_q\ $end
$var wire 1 t \inst11|ALT_INV_inst~DUPLICATE_q\ $end
$var wire 1 u \inst12|ALT_INV_inst~DUPLICATE_q\ $end
$var wire 1 v \inst8|ALT_INV_inst~0_combout\ $end
$var wire 1 w \inst11|ALT_INV_inst~0_combout\ $end
$var wire 1 x \inst12|ALT_INV_inst~0_combout\ $end
$var wire 1 y \inst3|ALT_INV_inst3~0_combout\ $end
$var wire 1 z \inst3|ALT_INV_inst~q\ $end
$var wire 1 { \inst3|ALT_INV_inst2~q\ $end
$var wire 1 | \inst3|ALT_INV_inst1~q\ $end
$var wire 1 } \inst|ALT_INV_inst~0_combout\ $end
$var wire 1 ~ \inst|ALT_INV_inst1~0_combout\ $end
$var wire 1 !! \inst3|ALT_INV_inst3~q\ $end
$var wire 1 "! \inst|ALT_INV_inst2~0_combout\ $end
$var wire 1 #! \inst|ALT_INV_inst~q\ $end
$var wire 1 $! \inst|ALT_INV_inst1~q\ $end
$var wire 1 %! \inst|ALT_INV_inst2~q\ $end
$var wire 1 &! \inst8|ALT_INV_inst~q\ $end
$var wire 1 '! \inst9|ALT_INV_inst3~0_combout\ $end
$var wire 1 (! \inst9|ALT_INV_inst1~q\ $end
$var wire 1 )! \inst9|ALT_INV_inst2~q\ $end
$var wire 1 *! \inst9|ALT_INV_inst~q\ $end
$var wire 1 +! \inst10|ALT_INV_inst2~0_combout\ $end
$var wire 1 ,! \inst9|ALT_INV_inst3~q\ $end
$var wire 1 -! \inst10|ALT_INV_inst1~q\ $end
$var wire 1 .! \inst10|ALT_INV_inst2~q\ $end
$var wire 1 /! \inst10|ALT_INV_inst~q\ $end
$var wire 1 0! \inst11|ALT_INV_inst1~0_combout\ $end
$var wire 1 1! \inst11|ALT_INV_inst2~0_combout\ $end
$var wire 1 2! \inst10|ALT_INV_inst3~q\ $end
$var wire 1 3! \inst11|ALT_INV_inst1~q\ $end
$var wire 1 4! \inst11|ALT_INV_inst2~q\ $end
$var wire 1 5! \inst11|ALT_INV_inst~q\ $end
$var wire 1 6! \inst11|ALT_INV_inst3~q\ $end
$var wire 1 7! \inst12|ALT_INV_inst1~q\ $end
$var wire 1 8! \inst12|ALT_INV_inst2~q\ $end
$var wire 1 9! \inst12|ALT_INV_inst~q\ $end
$var wire 1 :! \inst12|ALT_INV_inst3~q\ $end
$upscope $end
$upscope $end
$enddefinitions $end
#0
$dumpvars
0!
0"
0#
1$
x%
1&
1'
1(
1)
1*
1+
0,
0-
x.
0/
00
11
02
03
04
05
06
07
08
09
0:
0;
0<
1=
1>
0?
0@
0A
0B
0C
1D
1E
0F
0G
0H
1I
0J
0K
0L
0M
0N
0O
0P
0Q
0R
1S
0T
0U
0V
0W
0X
0Y
0Z
0[
0\
1]
1^
0_
0`
0a
0b
0c
0d
0e
0f
0g
0h
1i
1j
0k
0l
0m
0n
0o
0p
0q
1r
1s
1t
1u
0v
0w
0x
1y
1z
1{
1|
0}
1~
1!!
1"!
1#!
1$!
1%!
1&!
1'!
1(!
1)!
1*!
1+!
1,!
1-!
1.!
1/!
10!
11!
12!
13!
14!
15!
16!
17!
18!
19!
1:!
$end
#5000
1!
1-
1/
10
12
0z
01
13
#10000
0!
0-
0/
00
#15000
1!
1-
1/
10
02
14
0|
1z
11
#20000
0!
0-
0/
00
#25000
1!
1-
1/
10
12
0z
01
03
15
#30000
0!
0-
0/
00
#35000
1!
1-
1/
10
02
04
16
0{
1|
1z
11
#40000
0!
0-
0/
00
#45000
1!
1-
1/
10
12
0z
01
13
#50000
0!
0-
0/
00
#55000
1!
1-
1/
10
02
14
0|
1z
11
#60000
0!
0-
0/
00
#65000
1!
1-
1/
10
12
0z
01
03
05
17
0y
18
#70000
0!
0-
0/
00
#75000
1!
1-
1/
10
19
02
04
06
0!!
1?
1{
1|
1z
07
0#!
11
17
1y
1:
0=
0y
08
1}
0~
18
1;
0>
#80000
0!
0-
0/
00
#85000
1!
1-
1/
10
12
0z
01
13
#90000
0!
0-
0/
00
#95000
1!
1-
1/
10
02
14
0|
1z
03
07
1y
08
#100000
0!
0-
0/
00
#105000
1!
1-
1/
10
09
04
1!!
1|
11
13
03
#110000
0!
0-
0/
00
#115000
1!
1-
1/
10
12
0z
01
13
#120000
0!
0-
0/
00
#125000
1!
1-
1/
10
02
14
0|
1z
11
#130000
0!
0-
0/
00
#135000
1!
1-
1/
10
12
0z
01
03
15
#140000
0!
0-
0/
00
#145000
1!
1-
1/
10
02
04
16
0{
1|
1z
11
#150000
0!
0-
0/
00
#155000
1!
1-
1/
10
12
0z
01
13
#160000
0!
0-
0/
00
#165000
1!
1-
1/
10
02
14
0|
1z
11
#170000
0!
0-
0/
00
#175000
1!
1-
1/
10
12
0z
01
03
05
17
0y
18
#180000
0!
0-
0/
00
#185000
1!
1-
1/
10
19
02
04
06
0!!
1<
0?
1{
1|
1z
07
1#!
0$!
11
17
1y
1=
0y
08
0}
18
1>
#190000
0!
0-
0/
00
#195000
1!
1-
1/
10
12
0z
01
13
#200000
0!
0-
0/
00
#205000
1!
1-
1/
10
02
14
0|
1z
03
07
1y
08
#210000
0!
0-
0/
00
#215000
1!
1-
1/
10
09
04
1!!
1|
11
13
03
#220000
0!
0-
0/
00
#225000
1!
1-
1/
10
12
0z
01
13
#230000
0!
0-
0/
00
#235000
1!
1-
1/
10
02
14
0|
1z
11
#240000
0!
0-
0/
00
#245000
1!
1-
1/
10
12
0z
01
03
15
#250000
0!
0-
0/
00
#255000
1!
1-
1/
10
02
04
16
0{
1|
1z
11
#260000
0!
0-
0/
00
#265000
1!
1-
1/
10
12
0z
01
13
#270000
0!
0-
0/
00
#275000
1!
1-
1/
10
02
14
0|
1z
11
#280000
0!
0-
0/
00
#285000
1!
1-
1/
10
12
0z
01
03
05
17
0y
18
#290000
0!
0-
0/
00
#295000
1!
1-
1/
10
19
02
04
06
0!!
1?
1{
1|
1z
07
0#!
11
17
1y
0:
0=
1@
0y
08
0"!
1}
1~
18
0;
0>
1A
#300000
0!
0-
0/
00
#305000
1!
1-
1/
10
12
0z
01
13
#310000
0!
0-
0/
00
#315000
1!
1-
1/
10
02
14
0|
1z
03
07
1y
08
#320000
0!
0-
0/
00
#325000
1!
1-
1/
10
09
04
1!!
1|
11
13
03
#330000
0!
0-
0/
00
#335000
1!
1-
1/
10
12
0z
01
13
#340000
0!
0-
0/
00
#345000
1!
1-
1/
10
02
14
0|
1z
11
#350000
0!
0-
0/
00
#355000
1!
1-
1/
10
12
0z
01
03
15
#360000
0!
0-
0/
00
#365000
1!
1-
1/
10
02
04
16
0{
1|
1z
11
#370000
0!
0-
0/
00
#375000
1!
1-
1/
10
12
0z
01
13
#380000
0!
0-
0/
00
#385000
1!
1-
1/
10
02
14
0|
1z
11
#390000
0!
0-
0/
00
#395000
1!
1-
1/
10
12
0z
01
03
05
17
0y
18
#400000
0!
0-
0/
00
#405000
1!
1-
1/
10
19
02
04
06
0!!
0<
0?
1B
1{
1|
1z
07
0%!
1#!
1$!
11
17
1C
1F
1y
1=
0&!
0r
0y
08
0}
18
0D
1G
1>
1v
0E
#410000
0!
0-
0/
00
#415000
1!
1-
1/
10
12
0z
01
13
#420000
0!
0-
0/
00
#425000
1!
1-
1/
10
02
14
0|
1z
03
07
1y
08
#430000
0!
0-
0/
00
#435000
1!
1-
1/
10
09
04
1!!
1|
11
13
03
#440000
0!
0-
0/
00
#445000
1!
1-
1/
10
12
0z
01
13
#450000
0!
0-
0/
00
#455000
1!
1-
1/
10
02
14
0|
1z
11
#460000
0!
0-
0/
00
#465000
1!
1-
1/
10
12
0z
01
03
15
#470000
0!
0-
0/
00
#475000
1!
1-
1/
10
02
04
16
0{
1|
1z
11
#480000
0!
0-
0/
00
#485000
1!
1-
1/
10
12
0z
01
13
#490000
0!
0-
0/
00
#495000
1!
1-
1/
10
02
14
0|
1z
11
#500000
0!
0-
0/
00
#505000
1!
1-
1/
10
12
0z
01
03
05
17
0y
18
#510000
0!
0-
0/
00
#515000
1!
1-
1/
10
19
02
04
06
0!!
1?
1{
1|
1z
07
0#!
11
17
1y
1:
0=
0y
08
1}
0~
18
1;
0>
#520000
0!
0-
0/
00
#525000
1!
1-
1/
10
12
0z
01
13
#530000
0!
0-
0/
00
#535000
1!
1-
1/
10
02
14
0|
1z
03
07
1y
08
#540000
0!
0-
0/
00
#545000
1!
1-
1/
10
09
04
1!!
1|
11
13
03
#550000
0!
0-
0/
00
#555000
1!
1-
1/
10
12
0z
01
13
#560000
0!
0-
0/
00
#565000
1!
1-
1/
10
02
14
0|
1z
11
#570000
0!
0-
0/
00
#575000
1!
1-
1/
10
12
0z
01
03
15
#580000
0!
0-
0/
00
#585000
1!
1-
1/
10
02
04
16
0{
1|
1z
11
#590000
0!
0-
0/
00
#595000
1!
1-
1/
10
12
0z
01
13
#600000
0!
0-
0/
00
#605000
1!
1-
1/
10
02
14
0|
1z
11
#610000
0!
0-
0/
00
#615000
1!
1-
1/
10
12
0z
01
03
05
17
0y
18
#620000
0!
0-
0/
00
#625000
1!
1-
1/
10
19
02
04
06
0!!
1<
0?
1{
1|
1z
07
1#!
0$!
11
17
1y
0:
0@
0y
08
1"!
1~
18
0;
0A
#630000
0!
0-
0/
00
#635000
1!
1-
1/
10
12
0z
01
13
#640000
0!
0-
0/
00
#645000
1!
1-
1/
10
02
14
0|
1z
03
07
1y
08
#650000
0!
0-
0/
00
#655000
1!
1-
1/
10
09
04
1!!
1|
11
13
03
#660000
0!
0-
0/
00
#665000
1!
1-
1/
10
12
0z
01
13
#670000
0!
0-
0/
00
#675000
1!
1-
1/
10
02
14
0|
1z
11
#680000
0!
0-
0/
00
#685000
1!
1-
1/
10
12
0z
01
03
15
#690000
0!
0-
0/
00
#695000
1!
1-
1/
10
02
04
16
0{
1|
1z
11
#700000
0!
0-
0/
00
#705000
1!
1-
1/
10
12
0z
01
13
#710000
0!
0-
0/
00
#715000
1!
1-
1/
10
02
14
0|
1z
11
#720000
0!
0-
0/
00
#725000
1!
1-
1/
10
12
0z
01
03
05
17
0y
18
#730000
0!
0-
0/
00
#735000
1!
1-
1/
10
19
02
04
06
0!!
0<
0B
1{
1|
1z
07
1%!
1$!
11
17
1y
1=
0y
08
0}
18
1>
#740000
0!
0-
0/
00
#745000
1!
1-
1/
10
12
0z
01
13
#750000
0!
0-
0/
00
#755000
1!
1-
1/
10
02
14
0|
1z
03
07
1y
08
#760000
0!
0-
0/
00
#765000
1!
1-
1/
10
09
04
1!!
1|
11
13
03
#770000
0!
0-
0/
00
#775000
1!
1-
1/
10
12
0z
01
13
#780000
0!
0-
0/
00
#785000
1!
1-
1/
10
02
14
0|
1z
11
#790000
0!
0-
0/
00
#795000
1!
1-
1/
10
12
0z
01
03
15
#800000
0!
0-
0/
00
#805000
1!
1-
1/
10
02
04
16
0{
1|
1z
11
#810000
0!
0-
0/
00
#815000
1!
1-
1/
10
12
0z
01
13
#820000
0!
0-
0/
00
#825000
1!
1-
1/
10
02
14
0|
1z
11
#830000
0!
0-
0/
00
#835000
1!
1-
1/
10
12
0z
01
03
05
17
0y
18
#840000
0!
0-
0/
00
#845000
1!
1-
1/
10
19
02
04
06
0!!
1?
1{
1|
1z
07
0#!
11
17
1y
1:
0=
0y
08
1}
0~
18
1;
0>
#850000
0!
0-
0/
00
#855000
1!
1-
1/
10
12
0z
01
13
#860000
0!
0-
0/
00
#865000
1!
1-
1/
10
02
14
0|
1z
03
07
1y
08
#870000
0!
0-
0/
00
#875000
1!
1-
1/
10
09
04
1!!
1|
11
13
03
#880000
0!
0-
0/
00
#885000
1!
1-
1/
10
12
0z
01
13
#890000
0!
0-
0/
00
#895000
1!
1-
1/
10
02
14
0|
1z
11
#900000
0!
0-
0/
00
#905000
1!
1-
1/
10
12
0z
01
03
15
#910000
0!
0-
0/
00
#915000
1!
1-
1/
10
02
04
16
0{
1|
1z
11
#920000
0!
0-
0/
00
#925000
1!
1-
1/
10
12
0z
01
13
#930000
0!
0-
0/
00
#935000
1!
1-
1/
10
02
14
0|
1z
11
#940000
0!
0-
0/
00
#945000
1!
1-
1/
10
12
0z
01
03
05
17
0y
18
#950000
0!
0-
0/
00
#955000
1!
1-
1/
10
19
02
04
06
0!!
1<
0?
1{
1|
1z
07
1#!
0$!
11
17
1y
1=
0y
08
0}
18
1>
#960000
0!
0-
0/
00
#965000
1!
1-
1/
10
12
0z
01
13
#970000
0!
0-
0/
00
#975000
1!
1-
1/
10
02
14
0|
1z
03
07
1y
08
#980000
0!
0-
0/
00
#985000
1!
1-
1/
10
09
04
1!!
1|
11
13
03
#990000
0!
0-
0/
00
#995000
1!
1-
1/
10
12
0z
01
13
