numarator3/simulation/qsim/numarator3.msim.vcd
$comment
	File created using the following command:
		vcd file numarator3.msim.vcd -direction
$end
$date
	Thu Feb 16 10:44:28 2023
$end
$version
	ModelSim Version 2020.1
$end
$timescale
	1ps
$end

$scope module numarator3_vhd_vec_tst $end
$var wire 1 ! pin_name1 $end
$var wire 1 " q1 $end

$scope module i1 $end
$var wire 1 # gnd $end
$var wire 1 $ vcc $end
$var wire 1 % unknown $end
$var wire 1 & devoe $end
$var wire 1 ' devclrn $end
$var wire 1 ( devpor $end
$var wire 1 ) ww_devoe $end
$var wire 1 * ww_devclrn $end
$var wire 1 + ww_devpor $end
$var wire 1 , ww_q1 $end
$var wire 1 - ww_pin_name1 $end
$var wire 1 . \pin_name1~inputclkctrl_INCLK_bus\ [3] $end
$var wire 1 / \pin_name1~inputclkctrl_INCLK_bus\ [2] $end
$var wire 1 0 \pin_name1~inputclkctrl_INCLK_bus\ [1] $end
$var wire 1 1 \pin_name1~inputclkctrl_INCLK_bus\ [0] $end
$var wire 1 2 \q1~output_o\ $end
$var wire 1 3 \pin_name1~input_o\ $end
$var wire 1 4 \pin_name1~inputclkctrl_outclk\ $end
$var wire 1 5 \inst~0_combout\ $end
$var wire 1 6 \inst~q\ $end
$var wire 1 7 \inst1~0_combout\ $end
$var wire 1 8 \inst1~q\ $end
$upscope $end
$upscope $end
$enddefinitions $end
#0
$dumpvars
0!
0"
0#
1$
x%
1&
1'
1(
1)
1*
1+
0,
0-
02
03
04
15
06
07
08
1.
1/
10
01
$end
#5000
1!
1-
13
11
14
16
05
17
#10000
0!
0-
03
01
04
#15000
1!
1-
13
11
14
06
18
07
12
1,
1"
#20000
0!
0-
03
01
04
#25000
1!
1-
13
11
14
08
15
02
0,
0"
#30000
0!
0-
03
01
04
#35000
1!
1-
13
11
14
16
05
17
#40000
0!
0-
03
01
04
#45000
1!
1-
13
11
14
06
18
07
12
1,
1"
#50000
0!
0-
03
01
04
#55000
1!
1-
13
11
14
08
15
02
0,
0"
#60000
0!
0-
03
01
04
#65000
1!
1-
13
11
14
16
05
17
#70000
0!
0-
03
01
04
#75000
1!
1-
13
11
14
06
18
07
12
1,
1"
#80000
0!
0-
03
01
04
#85000
1!
1-
13
11
14
08
15
02
0,
0"
#90000
0!
0-
03
01
04
#95000
1!
1-
13
11
14
16
05
17
#100000
0!
0-
03
01
04
#105000
1!
1-
13
11
14
06
18
07
12
1,
1"
#110000
0!
0-
03
01
04
#115000
1!
1-
13
11
14
08
15
02
0,
0"
#120000
0!
0-
03
01
04
#125000
1!
1-
13
11
14
16
05
17
#130000
0!
0-
03
01
04
#135000
1!
1-
13
11
14
06
18
07
12
1,
1"
#140000
0!
0-
03
01
04
#145000
1!
1-
13
11
14
08
15
02
0,
0"
#150000
0!
0-
03
01
04
#155000
1!
1-
13
11
14
16
05
17
#160000
0!
0-
03
01
04
#165000
1!
1-
13
11
14
06
18
07
12
1,
1"
#170000
0!
0-
03
01
04
#175000
1!
1-
13
11
14
08
15
02
0,
0"
#180000
0!
0-
03
01
04
#185000
1!
1-
13
11
14
16
05
17
#190000
0!
0-
03
01
04
#195000
1!
1-
13
11
14
06
18
07
12
1,
1"
#200000
0!
0-
03
01
04
#205000
1!
1-
13
11
14
08
15
02
0,
0"
#210000
0!
0-
03
01
04
#215000
1!
1-
13
11
14
16
05
17
#220000
0!
0-
03
01
04
#225000
1!
1-
13
11
14
06
18
07
12
1,
1"
#230000
0!
0-
03
01
04
#235000
1!
1-
13
11
14
08
15
02
0,
0"
#240000
0!
0-
03
01
04
#245000
1!
1-
13
11
14
16
05
17
#250000
0!
0-
03
01
04
#255000
1!
1-
13
11
14
06
18
07
12
1,
1"
#260000
0!
0-
03
01
04
#265000
1!
1-
13
11
14
08
15
02
0,
0"
#270000
0!
0-
03
01
04
#275000
1!
1-
13
11
14
16
05
17
#280000
0!
0-
03
01
04
#285000
1!
1-
13
11
14
06
18
07
12
1,
1"
#290000
0!
0-
03
01
04
#295000
1!
1-
13
11
14
08
15
02
0,
0"
#300000
0!
0-
03
01
04
#305000
1!
1-
13
11
14
16
05
17
#310000
0!
0-
03
01
04
#315000
1!
1-
13
11
14
06
18
07
12
1,
1"
#320000
0!
0-
03
01
04
#325000
1!
1-
13
11
14
08
15
02
0,
0"
#330000
0!
0-
03
01
04
#335000
1!
1-
13
11
14
16
05
17
#340000
0!
0-
03
01
04
#345000
1!
1-
13
11
14
06
18
07
12
1,
1"
#350000
0!
0-
03
01
04
#355000
1!
1-
13
11
14
08
15
02
0,
0"
#360000
0!
0-
03
01
04
#365000
1!
1-
13
11
14
16
05
17
#370000
0!
0-
03
01
04
#375000
1!
1-
13
11
14
06
18
07
12
1,
1"
#380000
0!
0-
03
01
04
#385000
1!
1-
13
11
14
08
15
02
0,
0"
#390000
0!
0-
03
01
04
#395000
1!
1-
13
11
14
16
05
17
#400000
0!
0-
03
01
04
#405000
1!
1-
13
11
14
06
18
07
12
1,
1"
#410000
0!
0-
03
01
04
#415000
1!
1-
13
11
14
08
15
02
0,
0"
#420000
0!
0-
03
01
04
#425000
1!
1-
13
11
14
16
05
17
#430000
0!
0-
03
01
04
#435000
1!
1-
13
11
14
06
18
07
12
1,
1"
#440000
0!
0-
03
01
04
#445000
1!
1-
13
11
14
08
15
02
0,
0"
#450000
0!
0-
03
01
04
#455000
1!
1-
13
11
14
16
05
17
#460000
0!
0-
03
01
04
#465000
1!
1-
13
11
14
06
18
07
12
1,
1"
#470000
0!
0-
03
01
04
#475000
1!
1-
13
11
14
08
15
02
0,
0"
#480000
0!
0-
03
01
04
#485000
1!
1-
13
11
14
16
05
17
#490000
0!
0-
03
01
04
#495000
1!
1-
13
11
14
06
18
07
12
1,
1"
#500000
0!
0-
03
01
04
#505000
1!
1-
13
11
14
08
15
02
0,
0"
#510000
0!
0-
03
01
04
#515000
1!
1-
13
11
14
16
05
17
#520000
0!
0-
03
01
04
#525000
1!
1-
13
11
14
06
18
07
12
1,
1"
#530000
0!
0-
03
01
04
#535000
1!
1-
13
11
14
08
15
02
0,
0"
#540000
0!
0-
03
01
04
#545000
1!
1-
13
11
14
16
05
17
#550000
0!
0-
03
01
04
#555000
1!
1-
13
11
14
06
18
07
12
1,
1"
#560000
0!
0-
03
01
04
#565000
1!
1-
13
11
14
08
15
02
0,
0"
#570000
0!
0-
03
01
04
#575000
1!
1-
13
11
14
16
05
17
#580000
0!
0-
03
01
04
#585000
1!
1-
13
11
14
06
18
07
12
1,
1"
#590000
0!
0-
03
01
04
#595000
1!
1-
13
11
14
08
15
02
0,
0"
#600000
0!
0-
03
01
04
#605000
1!
1-
13
11
14
16
05
17
#610000
0!
0-
03
01
04
#615000
1!
1-
13
11
14
06
18
07
12
1,
1"
#620000
0!
0-
03
01
04
#625000
1!
1-
13
11
14
08
15
02
0,
0"
#630000
0!
0-
03
01
04
#635000
1!
1-
13
11
14
16
05
17
#640000
0!
0-
03
01
04
#645000
1!
1-
13
11
14
06
18
07
12
1,
1"
#650000
0!
0-
03
01
04
#655000
1!
1-
13
11
14
08
15
02
0,
0"
#660000
0!
0-
03
01
04
#665000
1!
1-
13
11
14
16
05
17
#670000
0!
0-
03
01
04
#675000
1!
1-
13
11
14
06
18
07
12
1,
1"
#680000
0!
0-
03
01
04
#685000
1!
1-
13
11
14
08
15
02
0,
0"
#690000
0!
0-
03
01
04
#695000
1!
1-
13
11
14
16
05
17
#700000
0!
0-
03
01
04
#705000
1!
1-
13
11
14
06
18
07
12
1,
1"
#710000
0!
0-
03
01
04
#715000
1!
1-
13
11
14
08
15
02
0,
0"
#720000
0!
0-
03
01
04
#725000
1!
1-
13
11
14
16
05
17
#730000
0!
0-
03
01
04
#735000
1!
1-
13
11
14
06
18
07
12
1,
1"
#740000
0!
0-
03
01
04
#745000
1!
1-
13
11
14
08
15
02
0,
0"
#750000
0!
0-
03
01
04
#755000
1!
1-
13
11
14
16
05
17
#760000
0!
0-
03
01
04
#765000
1!
1-
13
11
14
06
18
07
12
1,
1"
#770000
0!
0-
03
01
04
#775000
1!
1-
13
11
14
08
15
02
0,
0"
#780000
0!
0-
03
01
04
#785000
1!
1-
13
11
14
16
05
17
#790000
0!
0-
03
01
04
#795000
1!
1-
13
11
14
06
18
07
12
1,
1"
#800000
0!
0-
03
01
04
#805000
1!
1-
13
11
14
08
15
02
0,
0"
#810000
0!
0-
03
01
04
#815000
1!
1-
13
11
14
16
05
17
#820000
0!
0-
03
01
04
#825000
1!
1-
13
11
14
06
18
07
12
1,
1"
#830000
0!
0-
03
01
04
#835000
1!
1-
13
11
14
08
15
02
0,
0"
#840000
0!
0-
03
01
04
#845000
1!
1-
13
11
14
16
05
17
#850000
0!
0-
03
01
04
#855000
1!
1-
13
11
14
06
18
07
12
1,
1"
#860000
0!
0-
03
01
04
#865000
1!
1-
13
11
14
08
15
02
0,
0"
#870000
0!
0-
03
01
04
#875000
1!
1-
13
11
14
16
05
17
#880000
0!
0-
03
01
04
#885000
1!
1-
13
11
14
06
18
07
12
1,
1"
#890000
0!
0-
03
01
04
#895000
1!
1-
13
11
14
08
15
02
0,
0"
#900000
0!
0-
03
01
04
#905000
1!
1-
13
11
14
16
05
17
#910000
0!
0-
03
01
04
#915000
1!
1-
13
11
14
06
18
07
12
1,
1"
#920000
0!
0-
03
01
04
#925000
1!
1-
13
11
14
08
15
02
0,
0"
#930000
0!
0-
03
01
04
#935000
1!
1-
13
11
14
16
05
17
#940000
0!
0-
03
01
04
#945000
1!
1-
13
11
14
06
18
07
12
1,
1"
#950000
0!
0-
03
01
04
#955000
1!
1-
13
11
14
08
15
02
0,
0"
#960000
0!
0-
03
01
04
#965000
1!
1-
13
11
14
16
05
17
#970000
0!
0-
03
01
04
#975000
1!
1-
13
11
14
06
18
07
12
1,
1"
#980000
0!
0-
03
01
04
#985000
1!
1-
13
11
14
08
15
02
0,
0"
#990000
0!
0-
03
01
04
#995000
1!
1-
13
11
14
16
05
17
