Numarator invers/numinvers10/simulation/qsim/numinvers10.msim.vcd
$comment
	File created using the following command:
		vcd file numinvers10.msim.vcd -direction
$end
$date
	Wed Feb 15 15:33:51 2023
$end
$version
	ModelSim Version 2020.1
$end
$timescale
	1ps
$end

$scope module numinvers10_vhd_vec_tst $end
$var wire 1 ! ck $end
$var wire 1 " q0 $end
$var wire 1 # q1 $end
$var wire 1 $ q2 $end
$var wire 1 % q3 $end
$var wire 1 & reset $end

$scope module i1 $end
$var wire 1 ' gnd $end
$var wire 1 ( vcc $end
$var wire 1 ) unknown $end
$var wire 1 * devoe $end
$var wire 1 + devclrn $end
$var wire 1 , devpor $end
$var wire 1 - ww_devoe $end
$var wire 1 . ww_devclrn $end
$var wire 1 / ww_devpor $end
$var wire 1 0 ww_q0 $end
$var wire 1 1 ww_reset $end
$var wire 1 2 ww_ck $end
$var wire 1 3 ww_q1 $end
$var wire 1 4 ww_q2 $end
$var wire 1 5 ww_q3 $end
$var wire 1 6 \reset~inputclkctrl_INCLK_bus\ [3] $end
$var wire 1 7 \reset~inputclkctrl_INCLK_bus\ [2] $end
$var wire 1 8 \reset~inputclkctrl_INCLK_bus\ [1] $end
$var wire 1 9 \reset~inputclkctrl_INCLK_bus\ [0] $end
$var wire 1 : \ck~inputclkctrl_INCLK_bus\ [3] $end
$var wire 1 ; \ck~inputclkctrl_INCLK_bus\ [2] $end
$var wire 1 < \ck~inputclkctrl_INCLK_bus\ [1] $end
$var wire 1 = \ck~inputclkctrl_INCLK_bus\ [0] $end
$var wire 1 > \q0~output_o\ $end
$var wire 1 ? \q1~output_o\ $end
$var wire 1 @ \q2~output_o\ $end
$var wire 1 A \q3~output_o\ $end
$var wire 1 B \ck~input_o\ $end
$var wire 1 C \ck~inputclkctrl_outclk\ $end
$var wire 1 D \inst~0_combout\ $end
$var wire 1 E \reset~input_o\ $end
$var wire 1 F \reset~inputclkctrl_outclk\ $end
$var wire 1 G \inst~q\ $end
$var wire 1 H \inst2~0_combout\ $end
$var wire 1 I \inst2~q\ $end
$var wire 1 J \inst3~0_combout\ $end
$var wire 1 K \inst3~q\ $end
$var wire 1 L \inst1~0_combout\ $end
$var wire 1 M \inst1~q\ $end
$var wire 1 N \ALT_INV_ck~inputclkctrl_outclk\ $end
$upscope $end
$upscope $end
$enddefinitions $end
#0
$dumpvars
0!
0"
0#
0$
0%
1&
0'
1(
x)
1*
1+
1,
1-
1.
1/
00
11
02
03
04
05
0>
0?
0@
0A
0B
0C
1D
1E
1F
0G
0H
0I
1J
0K
0L
0M
1N
1:
1;
1<
0=
16
17
18
19
$end
#10000
1!
12
1B
1=
1C
0N
#20000
0!
02
0B
0=
0C
1N
1G
1K
0D
1A
1>
15
10
1%
1"
#30000
1!
12
1B
1=
1C
0N
#40000
0!
02
0B
0=
0C
1N
0G
1D
1H
0J
1L
0>
00
0"
#50000
1!
12
1B
1=
1C
0N
#60000
0!
02
0B
0=
0C
1N
1G
1I
0K
1M
0D
1?
0A
1@
1>
13
05
14
10
1#
0%
1$
1"
#70000
1!
12
1B
1=
1C
0N
#80000
0!
02
0B
0=
0C
1N
0G
1D
0L
0>
00
0"
#90000
1!
12
1B
1=
1C
0N
#100000
0!
02
0B
0=
0C
1N
1G
0M
0D
0?
1>
03
10
0#
1"
#110000
1!
12
1B
1=
1C
0N
#120000
0!
02
0B
0=
0C
1N
0G
1D
0H
1L
0>
00
0"
#130000
1!
12
1B
1=
1C
0N
#140000
0!
02
0B
0=
0C
1N
1G
0I
1M
0D
1?
0@
1>
13
04
10
1#
0$
1"
#150000
1!
12
1B
1=
1C
0N
#160000
0!
02
0B
0=
0C
1N
0G
1D
0L
0>
00
0"
#170000
1!
12
1B
1=
1C
0N
#180000
0!
02
0B
0=
0C
1N
1G
0M
0D
0?
1>
03
10
0#
1"
#190000
1!
12
1B
1=
1C
0N
#200000
0!
02
0B
0=
0C
1N
0G
1D
1J
0>
00
0"
#210000
1!
12
1B
1=
1C
0N
#220000
0!
02
0B
0=
0C
1N
1G
1K
0D
1A
1>
15
10
1%
1"
#230000
1!
12
1B
1=
1C
0N
#240000
0!
02
0B
0=
0C
1N
0G
1D
1H
0J
1L
0>
00
0"
#250000
1!
12
1B
1=
1C
0N
#260000
0!
02
0B
0=
0C
1N
1G
1I
0K
1M
0D
1?
0A
1@
1>
13
05
14
10
1#
0%
1$
1"
#270000
1!
12
1B
1=
1C
0N
#280000
0!
02
0B
0=
0C
1N
0G
1D
0L
0>
00
0"
#290000
1!
12
1B
1=
1C
0N
#300000
0!
02
0B
0=
0C
1N
1G
0M
0D
0?
1>
03
10
0#
1"
#310000
1!
12
1B
1=
1C
0N
#320000
0!
02
0B
0=
0C
1N
0G
1D
0H
1L
0>
00
0"
#330000
1!
12
1B
1=
1C
0N
#340000
0!
02
0B
0=
0C
1N
1G
0I
1M
0D
1?
0@
1>
13
04
10
1#
0$
1"
#350000
1!
12
1B
1=
1C
0N
#360000
0!
02
0B
0=
0C
1N
0G
1D
0L
0>
00
0"
#370000
1!
12
1B
1=
1C
0N
#380000
0!
02
0B
0=
0C
1N
1G
0M
0D
0?
1>
03
10
0#
1"
#390000
1!
12
1B
1=
1C
0N
#400000
0!
02
0B
0=
0C
1N
0G
1D
1J
0>
00
0"
#410000
1!
12
1B
1=
1C
0N
#420000
0!
02
0B
0=
0C
1N
1G
1K
0D
1A
1>
15
10
1%
1"
#430000
1!
12
1B
1=
1C
0N
#440000
0!
02
0B
0=
0C
1N
0G
1D
1H
0J
1L
0>
00
0"
#450000
1!
12
1B
1=
1C
0N
#460000
0!
02
0B
0=
0C
1N
1G
1I
0K
1M
0D
1?
0A
1@
1>
13
05
14
10
1#
0%
1$
1"
#470000
1!
12
1B
1=
1C
0N
#480000
0!
02
0B
0=
0C
1N
0G
1D
0L
0>
00
0"
#490000
1!
12
1B
1=
1C
0N
#500000
0!
02
0B
0=
0C
1N
1G
0M
0D
0?
1>
03
10
0#
1"
#510000
1!
12
1B
1=
1C
0N
#520000
0!
02
0B
0=
0C
1N
0G
1D
0H
1L
0>
00
0"
#530000
1!
12
1B
1=
1C
0N
#540000
0!
02
0B
0=
0C
1N
1G
0I
1M
0D
1?
0@
1>
13
04
10
1#
0$
1"
#550000
1!
12
1B
1=
1C
0N
#560000
0!
02
0B
0=
0C
1N
0G
1D
0L
0>
00
0"
#570000
1!
12
1B
1=
1C
0N
#580000
0!
02
0B
0=
0C
1N
1G
0M
0D
0?
1>
03
10
0#
1"
#590000
1!
12
1B
1=
1C
0N
#600000
0!
02
0B
0=
0C
1N
0G
1D
1J
0>
00
0"
#610000
1!
12
1B
1=
1C
0N
#620000
0!
02
0B
0=
0C
1N
1G
1K
0D
1A
1>
15
10
1%
1"
#630000
1!
12
1B
1=
1C
0N
#640000
0!
02
0B
0=
0C
1N
0G
1D
1H
0J
1L
0>
00
0"
#650000
1!
12
1B
1=
1C
0N
#660000
0!
02
0B
0=
0C
1N
1G
1I
0K
1M
0D
1?
0A
1@
1>
13
05
14
10
1#
0%
1$
1"
#670000
1!
12
1B
1=
1C
0N
#680000
0!
02
0B
0=
0C
1N
0G
1D
0L
0>
00
0"
#690000
1!
12
1B
1=
1C
0N
#700000
0!
02
0B
0=
0C
1N
1G
0M
0D
0?
1>
03
10
0#
1"
#710000
1!
12
1B
1=
1C
0N
#720000
0!
02
0B
0=
0C
1N
0G
1D
0H
1L
0>
00
0"
#730000
1!
12
1B
1=
1C
0N
#740000
0!
02
0B
0=
0C
1N
1G
0I
1M
0D
1?
0@
1>
13
04
10
1#
0$
1"
#750000
1!
12
1B
1=
1C
0N
#760000
0!
02
0B
0=
0C
1N
0G
1D
0L
0>
00
0"
#770000
1!
12
1B
1=
1C
0N
#780000
0!
02
0B
0=
0C
1N
1G
0M
0D
0?
1>
03
10
0#
1"
#790000
1!
12
1B
1=
1C
0N
#800000
0!
02
0B
0=
0C
1N
0G
1D
1J
0>
00
0"
#810000
1!
12
1B
1=
1C
0N
#820000
0!
02
0B
0=
0C
1N
1G
1K
0D
1A
1>
15
10
1%
1"
#830000
1!
12
1B
1=
1C
0N
#840000
0!
02
0B
0=
0C
1N
0G
1D
1H
0J
1L
0>
00
0"
#850000
1!
12
1B
1=
1C
0N
#860000
0!
02
0B
0=
0C
1N
1G
1I
0K
1M
0D
1?
0A
1@
1>
13
05
14
10
1#
0%
1$
1"
#870000
1!
12
1B
1=
1C
0N
#880000
0!
02
0B
0=
0C
1N
0G
1D
0L
0>
00
0"
#890000
1!
12
1B
1=
1C
0N
#900000
0!
02
0B
0=
0C
1N
1G
0M
0D
0?
1>
03
10
0#
1"
#910000
1!
12
1B
1=
1C
0N
#920000
0!
02
0B
0=
0C
1N
0G
1D
0H
1L
0>
00
0"
#930000
1!
12
1B
1=
1C
0N
#940000
0!
02
0B
0=
0C
1N
1G
0I
1M
0D
1?
0@
1>
13
04
10
1#
0$
1"
#950000
1!
12
1B
1=
1C
0N
#960000
0!
02
0B
0=
0C
1N
0G
1D
0L
0>
00
0"
#970000
1!
12
1B
1=
1C
0N
#980000
0!
02
0B
0=
0C
1N
1G
0M
0D
0?
1>
03
10
0#
1"
#990000
1!
12
1B
1=
1C
0N
