Numarator invers/numaratorminute/simulation/qsim/numaratorminute.msim.vcd
$comment
	File created using the following command:
		vcd file numaratorminute.msim.vcd -direction
$end
$date
	Wed Feb 15 19:34:58 2023
$end
$version
	ModelSim Version 2020.1
$end
$timescale
	1ps
$end

$scope module numaratorminute_vhd_vec_tst $end
$var wire 1 ! clk $end
$var wire 1 " iesire $end
$var wire 1 # m0 $end
$var wire 1 $ m1 $end
$var wire 1 % m2 $end
$var wire 1 & m3 $end
$var wire 1 ' reset $end
$var wire 1 ( set $end
$var wire 1 ) zm0 $end
$var wire 1 * zm1 $end
$var wire 1 + zm2 $end

$scope module i1 $end
$var wire 1 , gnd $end
$var wire 1 - vcc $end
$var wire 1 . unknown $end
$var wire 1 / devoe $end
$var wire 1 0 devclrn $end
$var wire 1 1 devpor $end
$var wire 1 2 ww_devoe $end
$var wire 1 3 ww_devclrn $end
$var wire 1 4 ww_devpor $end
$var wire 1 5 ww_m1 $end
$var wire 1 6 ww_set $end
$var wire 1 7 ww_clk $end
$var wire 1 8 ww_reset $end
$var wire 1 9 ww_m2 $end
$var wire 1 : ww_m0 $end
$var wire 1 ; ww_m3 $end
$var wire 1 < ww_zm0 $end
$var wire 1 = ww_zm1 $end
$var wire 1 > ww_zm2 $end
$var wire 1 ? ww_iesire $end
$var wire 1 @ \inst3|inst3~0clkctrl_INCLK_bus\ [3] $end
$var wire 1 A \inst3|inst3~0clkctrl_INCLK_bus\ [2] $end
$var wire 1 B \inst3|inst3~0clkctrl_INCLK_bus\ [1] $end
$var wire 1 C \inst3|inst3~0clkctrl_INCLK_bus\ [0] $end
$var wire 1 D \clk~inputclkctrl_INCLK_bus\ [3] $end
$var wire 1 E \clk~inputclkctrl_INCLK_bus\ [2] $end
$var wire 1 F \clk~inputclkctrl_INCLK_bus\ [1] $end
$var wire 1 G \clk~inputclkctrl_INCLK_bus\ [0] $end
$var wire 1 H \m1~output_o\ $end
$var wire 1 I \m2~output_o\ $end
$var wire 1 J \m0~output_o\ $end
$var wire 1 K \m3~output_o\ $end
$var wire 1 L \zm0~output_o\ $end
$var wire 1 M \zm1~output_o\ $end
$var wire 1 N \zm2~output_o\ $end
$var wire 1 O \iesire~output_o\ $end
$var wire 1 P \clk~input_o\ $end
$var wire 1 Q \clk~inputclkctrl_outclk\ $end
$var wire 1 R \set~input_o\ $end
$var wire 1 S \reset~input_o\ $end
$var wire 1 T \inst3|inst~1_combout\ $end
$var wire 1 U \inst3|inst~3_combout\ $end
$var wire 1 V \inst3|inst~0_combout\ $end
$var wire 1 W \inst3|inst~_emulated_q\ $end
$var wire 1 X \inst3|inst~2_combout\ $end
$var wire 1 Y \inst3|inst3~3_combout\ $end
$var wire 1 Z \inst3|inst3~1_combout\ $end
$var wire 1 [ \inst3|inst3~_emulated_q\ $end
$var wire 1 \ \inst3|inst3~0_combout\ $end
$var wire 1 ] \inst3|inst2~0_combout\ $end
$var wire 1 ^ \inst3|inst2~q\ $end
$var wire 1 _ \inst3|inst1~0_combout\ $end
$var wire 1 ` \inst3|inst1~q\ $end
$var wire 1 a \inst3|inst3~0clkctrl_outclk\ $end
$var wire 1 b \inst|inst~1_combout\ $end
$var wire 1 c \inst|inst~_emulated_q\ $end
$var wire 1 d \inst|inst~0_combout\ $end
$var wire 1 e \inst|inst2~0_combout\ $end
$var wire 1 f \inst|inst2~q\ $end
$var wire 1 g \inst|inst1~1_combout\ $end
$var wire 1 h \inst|inst1~_emulated_q\ $end
$var wire 1 i \inst|inst1~0_combout\ $end
$var wire 1 j \ALT_INV_clk~inputclkctrl_outclk\ $end
$var wire 1 k \inst3|ALT_INV_inst3~0clkctrl_outclk\ $end
$var wire 1 l \ALT_INV_clk~input_o\ $end
$var wire 1 m \inst3|ALT_INV_inst~0_combout\ $end
$upscope $end
$upscope $end
$enddefinitions $end
#0
$dumpvars
0!
0"
1#
0$
0%
1&
1'
0(
1)
1*
0+
0,
1-
x.
1/
10
11
12
13
14
05
06
07
18
09
1:
1;
1<
1=
0>
0?
0H
0I
1J
1K
1L
1M
0N
0O
0P
0Q
0R
1S
1T
1U
1V
0W
1X
0Y
0Z
0[
1\
0]
0^
0_
0`
1a
1b
0c
1d
0e
0f
0g
0h
1i
1j
0k
1l
0m
1D
1E
1F
0G
1@
1A
1B
1C
$end
#5000
1!
17
1P
0l
1G
1Q
0j
#10000
0!
07
0P
1l
0G
0Q
1j
#15000
1!
17
1P
0l
1G
1Q
0j
#20000
0!
07
0P
1l
0G
0Q
1j
#25000
1!
17
1P
0l
1G
1Q
0j
#30000
0!
07
0P
1l
0G
0Q
1j
#35000
1!
17
1P
0l
1G
1Q
0j
#40000
0!
07
0P
1l
0G
0Q
1j
#45000
1!
17
1P
0l
1G
1Q
0j
#50000
0!
07
0P
1l
0G
0Q
1j
#55000
1!
17
1P
0l
1G
1Q
0j
#60000
0!
07
0P
1l
0G
0Q
1j
#65000
1!
17
1P
0l
1G
1Q
0j
#70000
0!
07
0P
1l
0G
0Q
1j
#75000
1!
17
1P
0l
1G
1Q
0j
#80000
0!
07
0P
1l
0G
0Q
1j
#85000
1!
17
1P
0l
1G
1Q
0j
#90000
0!
07
0P
1l
0G
0Q
1j
#95000
1!
17
1P
0l
1G
1Q
0j
#100000
0!
07
0P
1l
0G
0Q
1j
#105000
1!
17
1P
0l
1G
1Q
0j
#110000
0!
1(
07
16
1R
0P
1l
0G
0V
1m
0Q
1j
1W
0X
0U
1Y
1]
1_
1Z
0J
0:
0#
#115000
1!
17
1P
0l
1G
1Q
0j
#120000
0!
07
0P
1l
0G
1[
0Q
0\
1j
0C
0Z
0]
0_
0W
1^
1`
0a
0K
0Y
1Z
1]
1X
1k
0;
1U
1_
0&
1H
1I
1c
15
19
1J
0d
1$
1%
1:
0b
1g
1#
0L
0<
0)
#125000
1!
17
1P
0l
1G
1Q
0j
#130000
0!
07
0P
1l
0G
0Q
1j
1W
0X
0U
0_
0J
0:
0#
#135000
1!
17
1P
0l
1G
1Q
0j
#140000
0!
07
0P
1l
0G
0Q
1j
0W
0`
1Y
0]
1_
1X
1U
0Y
1]
0_
0H
05
1J
0$
1:
1#
#145000
1!
17
1P
0l
1G
1Q
0j
#150000
0!
07
0P
1l
0G
0Q
1j
1W
0X
0U
1Y
0]
1_
0J
0:
0#
#155000
1!
17
1P
0l
1G
1Q
0j
#160000
0!
07
0P
1l
0G
0Q
1j
0W
0^
1`
0Y
0Z
0_
1X
1U
1_
1Z
1H
0I
15
09
1J
1$
0%
1:
1#
#165000
1!
17
1P
0l
1G
1Q
0j
#170000
0!
07
0P
1l
0G
0Q
1j
1W
0X
0U
0_
0J
0:
0#
#175000
1!
17
1P
0l
1G
1Q
0j
#180000
0!
07
0P
1l
0G
0Q
1j
0W
0`
1Y
1X
1U
0Y
0Z
0H
1Z
05
1J
0$
1:
1#
#185000
1!
17
1P
0l
1G
1Q
0j
#190000
0!
07
0P
1l
0G
0Q
1j
1W
0X
0U
1Y
0Z
0J
0:
0#
#195000
1!
17
1P
0l
1G
1Q
0j
#200000
0!
07
0P
1l
0G
0[
0Q
1\
1j
1C
1Z
1]
1_
0W
1a
1K
1X
0k
1;
1U
0Y
0]
0_
1&
0Z
1J
1:
1#
#205000
1!
17
1P
0l
1G
1Q
0j
#210000
0!
07
0P
1l
0G
0Q
1j
1W
0X
0U
1Y
1]
1_
1Z
0J
0:
0#
#215000
1!
17
1P
0l
1G
1Q
0j
#220000
0!
07
0P
1l
0G
1[
0Q
0\
1j
0C
0Z
0]
0_
0W
1^
1`
0a
0K
0Y
1Z
1]
1X
1k
0;
1U
1_
0&
1H
1I
0c
1h
15
19
1J
0i
1d
1$
1%
1:
1b
1#
1L
0M
1<
0=
1)
0*
#225000
1!
17
1P
0l
1G
1Q
0j
#230000
0!
07
0P
1l
0G
0Q
1j
1W
0X
0U
0_
0J
0:
0#
#235000
1!
17
1P
0l
1G
1Q
0j
#240000
0!
07
0P
1l
0G
0Q
1j
0W
0`
1Y
0]
1_
1X
1U
0Y
1]
0_
0H
05
1J
0$
1:
1#
#245000
1!
17
1P
0l
1G
1Q
0j
#250000
0!
07
0P
1l
0G
0Q
1j
1W
0X
0U
1Y
0]
1_
0J
0:
0#
#255000
1!
17
1P
0l
1G
1Q
0j
#260000
0!
07
0P
1l
0G
0Q
1j
0W
0^
1`
0Y
0Z
0_
1X
1U
1_
1Z
1H
0I
15
09
1J
1$
0%
1:
1#
#265000
1!
17
1P
0l
1G
1Q
0j
#270000
0!
07
0P
1l
0G
0Q
1j
1W
0X
0U
0_
0J
0:
0#
#275000
1!
17
1P
0l
1G
1Q
0j
#280000
0!
07
0P
1l
0G
0Q
1j
0W
0`
1Y
1X
1U
0Y
0Z
0H
1Z
05
1J
0$
1:
1#
#285000
1!
17
1P
0l
1G
1Q
0j
#290000
0!
07
0P
1l
0G
0Q
1j
1W
0X
0U
1Y
0Z
0J
0:
0#
#295000
1!
17
1P
0l
1G
1Q
0j
#300000
0!
07
0P
1l
0G
0[
0Q
1\
1j
1C
1Z
1]
1_
0W
1a
1K
1X
0k
1;
1U
0Y
0]
0_
1&
0Z
1J
1:
1#
#305000
1!
17
1P
0l
1G
1Q
0j
#310000
0!
07
0P
1l
0G
0Q
1j
1W
0X
0U
1Y
1]
1_
1Z
0J
0:
0#
#315000
1!
17
1P
0l
1G
1Q
0j
#320000
0!
07
0P
1l
0G
1[
0Q
0\
1j
0C
0Z
0]
0_
0W
1^
1`
0a
0K
0Y
1Z
1]
1X
1k
0;
1U
1_
0&
1H
1I
1c
15
19
1J
0d
1$
1%
1:
0b
1e
1#
0L
0<
0)
#325000
1!
17
1P
0l
1G
1Q
0j
#330000
0!
07
0P
1l
0G
0Q
1j
1W
0X
0U
0_
0J
0:
0#
#335000
1!
17
1P
0l
1G
1Q
0j
#340000
0!
07
0P
1l
0G
0Q
1j
0W
0`
1Y
0]
1_
1X
1U
0Y
1]
0_
0H
05
1J
0$
1:
1#
#345000
1!
17
1P
0l
1G
1Q
0j
#350000
0!
07
0P
1l
0G
0Q
1j
1W
0X
0U
1Y
0]
1_
0J
0:
0#
#355000
1!
17
1P
0l
1G
1Q
0j
#360000
0!
07
0P
1l
0G
0Q
1j
0W
0^
1`
0Y
0Z
0_
1X
1U
1_
1Z
1H
0I
15
09
1J
1$
0%
1:
1#
#365000
1!
17
1P
0l
1G
1Q
0j
#370000
0!
07
0P
1l
0G
0Q
1j
1W
0X
0U
0_
0J
0:
0#
#375000
1!
17
1P
0l
1G
1Q
0j
#380000
0!
07
0P
1l
0G
0Q
1j
0W
0`
1Y
1X
1U
0Y
0Z
0H
1Z
05
1J
0$
1:
1#
#385000
1!
17
1P
0l
1G
1Q
0j
#390000
0!
07
0P
1l
0G
0Q
1j
1W
0X
0U
1Y
0Z
0J
0:
0#
#395000
1!
17
1P
0l
1G
1Q
0j
#400000
0!
07
0P
1l
0G
0[
0Q
1\
1j
1C
1Z
1]
1_
0W
1a
1K
1X
0k
1;
1U
0Y
0]
0_
1&
0Z
1J
1:
1#
#405000
1!
17
1P
0l
1G
1Q
0j
#410000
0!
07
0P
1l
0G
0Q
1j
1W
0X
0U
1Y
1]
1_
1Z
0J
0:
0#
#415000
1!
17
1P
0l
1G
1Q
0j
#420000
0!
07
0P
1l
0G
1[
0Q
0\
1j
0C
0Z
0]
0_
0W
1^
1`
0a
0K
0Y
1Z
1]
1X
1k
0;
1U
1_
0&
1H
1I
0c
1f
15
19
1J
0e
0g
1d
1$
1%
1:
1b
1e
1g
1#
1N
1O
1>
1?
1L
1+
1"
1<
1)
#425000
1!
17
1P
0l
1G
1Q
0j
#430000
0!
07
0P
1l
0G
0Q
1j
1W
0X
0U
0_
0J
0:
0#
#435000
1!
17
1P
0l
1G
1Q
0j
#440000
0!
07
0P
1l
0G
0Q
1j
0W
0`
1Y
0]
1_
1X
1U
0Y
1]
0_
0H
05
1J
0$
1:
1#
#445000
1!
17
1P
0l
1G
1Q
0j
#450000
0!
07
0P
1l
0G
0Q
1j
1W
0X
0U
1Y
0]
1_
0J
0:
0#
#455000
1!
17
1P
0l
1G
1Q
0j
#460000
0!
07
0P
1l
0G
0Q
1j
0W
0^
1`
0Y
0Z
0_
1X
1U
1_
1Z
1H
0I
15
09
1J
1$
0%
1:
1#
#465000
1!
17
1P
0l
1G
1Q
0j
#470000
0!
07
0P
1l
0G
0Q
1j
1W
0X
0U
0_
0J
0:
0#
#475000
1!
17
1P
0l
1G
1Q
0j
#480000
0!
07
0P
1l
0G
0Q
1j
0W
0`
1Y
1X
1U
0Y
0Z
0H
1Z
05
1J
0$
1:
1#
#485000
1!
17
1P
0l
1G
1Q
0j
#490000
0!
07
0P
1l
0G
0Q
1j
1W
0X
0U
1Y
0Z
0J
0:
0#
#495000
1!
17
1P
0l
1G
1Q
0j
#500000
0!
07
0P
1l
0G
0[
0Q
1\
1j
1C
1Z
1]
1_
0W
1a
1K
1X
0k
1;
1U
0Y
0]
0_
1&
0Z
1J
1:
1#
#505000
1!
17
1P
0l
1G
1Q
0j
#510000
0!
07
0P
1l
0G
0Q
1j
1W
0X
0U
1Y
1]
1_
1Z
0J
0:
0#
#515000
1!
17
1P
0l
1G
1Q
0j
#520000
0!
07
0P
1l
0G
1[
0Q
0\
1j
0C
0Z
0]
0_
0W
1^
1`
0a
0K
0Y
1Z
1]
1X
1k
0;
1U
1_
0&
1H
1I
1c
15
19
1J
0d
1$
1%
1:
0b
0e
0g
1#
0L
0<
0)
#525000
1!
17
1P
0l
1G
1Q
0j
#530000
0!
07
0P
1l
0G
0Q
1j
1W
0X
0U
0_
0J
0:
0#
#535000
1!
17
1P
0l
1G
1Q
0j
#540000
0!
07
0P
1l
0G
0Q
1j
0W
0`
1Y
0]
1_
1X
1U
0Y
1]
0_
0H
05
1J
0$
1:
1#
#545000
1!
17
1P
0l
1G
1Q
0j
#550000
0!
07
0P
1l
0G
0Q
1j
1W
0X
0U
1Y
0]
1_
0J
0:
0#
#555000
1!
17
1P
0l
1G
1Q
0j
#560000
0!
07
0P
1l
0G
0Q
1j
0W
0^
1`
0Y
0Z
0_
1X
1U
1_
1Z
1H
0I
15
09
1J
1$
0%
1:
1#
#565000
1!
17
1P
0l
1G
1Q
0j
#570000
0!
07
0P
1l
0G
0Q
1j
1W
0X
0U
0_
0J
0:
0#
#575000
1!
17
1P
0l
1G
1Q
0j
#580000
0!
07
0P
1l
0G
0Q
1j
0W
0`
1Y
1X
1U
0Y
0Z
0H
1Z
05
1J
0$
1:
1#
#585000
1!
17
1P
0l
1G
1Q
0j
#590000
0!
07
0P
1l
0G
0Q
1j
1W
0X
0U
1Y
0Z
0J
0:
0#
#595000
1!
17
1P
0l
1G
1Q
0j
#600000
0!
07
0P
1l
0G
0[
0Q
1\
1j
1C
1Z
1]
1_
0W
1a
1K
1X
0k
1;
1U
0Y
0]
0_
1&
0Z
1J
1:
1#
#605000
1!
17
1P
0l
1G
1Q
0j
#610000
0!
07
0P
1l
0G
0Q
1j
1W
0X
0U
1Y
1]
1_
1Z
0J
0:
0#
#615000
1!
17
1P
0l
1G
1Q
0j
#620000
0!
07
0P
1l
0G
1[
0Q
0\
1j
0C
0Z
0]
0_
0W
1^
1`
0a
0K
0Y
1Z
1]
1X
1k
0;
1U
1_
0&
1H
1I
0c
0f
0h
15
19
1J
1i
1e
1g
1d
1$
1%
1:
1b
0e
0g
1#
0N
0O
0>
0?
1L
1M
0+
0"
1<
1=
1)
1*
#625000
1!
17
1P
0l
1G
1Q
0j
#630000
0!
07
0P
1l
0G
0Q
1j
1W
0X
0U
0_
0J
0:
0#
#635000
1!
17
1P
0l
1G
1Q
0j
#640000
0!
07
0P
1l
0G
0Q
1j
0W
0`
1Y
0]
1_
1X
1U
0Y
1]
0_
0H
05
1J
0$
1:
1#
#645000
1!
17
1P
0l
1G
1Q
0j
#650000
0!
07
0P
1l
0G
0Q
1j
1W
0X
0U
1Y
0]
1_
0J
0:
0#
#655000
1!
17
1P
0l
1G
1Q
0j
#660000
0!
07
0P
1l
0G
0Q
1j
0W
0^
1`
0Y
0Z
0_
1X
1U
1_
1Z
1H
0I
15
09
1J
1$
0%
1:
1#
#665000
1!
17
1P
0l
1G
1Q
0j
#670000
0!
07
0P
1l
0G
0Q
1j
1W
0X
0U
0_
0J
0:
0#
#675000
1!
17
1P
0l
1G
1Q
0j
#680000
0!
07
0P
1l
0G
0Q
1j
0W
0`
1Y
1X
1U
0Y
0Z
0H
1Z
05
1J
0$
1:
1#
#685000
1!
17
1P
0l
1G
1Q
0j
#690000
0!
07
0P
1l
0G
0Q
1j
1W
0X
0U
1Y
0Z
0J
0:
0#
#695000
1!
17
1P
0l
1G
1Q
0j
#700000
0!
07
0P
1l
0G
0[
0Q
1\
1j
1C
1Z
1]
1_
0W
1a
1K
1X
0k
1;
1U
0Y
0]
0_
1&
0Z
1J
1:
1#
#705000
1!
17
1P
0l
1G
1Q
0j
#710000
0!
07
0P
1l
0G
0Q
1j
1W
0X
0U
1Y
1]
1_
1Z
0J
0:
0#
#715000
1!
17
1P
0l
1G
1Q
0j
#720000
0!
07
0P
1l
0G
1[
0Q
0\
1j
0C
0Z
0]
0_
0W
1^
1`
0a
0K
0Y
1Z
1]
1X
1k
0;
1U
1_
0&
1H
1I
1c
15
19
1J
0d
1$
1%
1:
0b
1g
1#
0L
0<
0)
#725000
1!
17
1P
0l
1G
1Q
0j
#730000
0!
07
0P
1l
0G
0Q
1j
1W
0X
0U
0_
0J
0:
0#
#735000
1!
17
1P
0l
1G
1Q
0j
#740000
0!
07
0P
1l
0G
0Q
1j
0W
0`
1Y
0]
1_
1X
1U
0Y
1]
0_
0H
05
1J
0$
1:
1#
#745000
1!
17
1P
0l
1G
1Q
0j
#750000
0!
07
0P
1l
0G
0Q
1j
1W
0X
0U
1Y
0]
1_
0J
0:
0#
#755000
1!
17
1P
0l
1G
1Q
0j
#760000
0!
07
0P
1l
0G
0Q
1j
0W
0^
1`
0Y
0Z
0_
1X
1U
1_
1Z
1H
0I
15
09
1J
1$
0%
1:
1#
#765000
1!
17
1P
0l
1G
1Q
0j
#770000
0!
07
0P
1l
0G
0Q
1j
1W
0X
0U
0_
0J
0:
0#
#775000
1!
17
1P
0l
1G
1Q
0j
#780000
0!
07
0P
1l
0G
0Q
1j
0W
0`
1Y
1X
1U
0Y
0Z
0H
1Z
05
1J
0$
1:
1#
#785000
1!
17
1P
0l
1G
1Q
0j
#790000
0!
07
0P
1l
0G
0Q
1j
1W
0X
0U
1Y
0Z
0J
0:
0#
#795000
1!
17
1P
0l
1G
1Q
0j
#800000
0!
07
0P
1l
0G
0[
0Q
1\
1j
1C
1Z
1]
1_
0W
1a
1K
1X
0k
1;
1U
0Y
0]
0_
1&
0Z
1J
1:
1#
#805000
1!
17
1P
0l
1G
1Q
0j
#810000
0!
07
0P
1l
0G
0Q
1j
1W
0X
0U
1Y
1]
1_
1Z
0J
0:
0#
#815000
1!
17
1P
0l
1G
1Q
0j
#820000
0!
07
0P
1l
0G
1[
0Q
0\
1j
0C
0Z
0]
0_
0W
1^
1`
0a
0K
0Y
1Z
1]
1X
1k
0;
1U
1_
0&
1H
1I
0c
1h
15
19
1J
0i
1d
1$
1%
1:
1b
1#
1L
0M
1<
0=
1)
0*
#825000
1!
17
1P
0l
1G
1Q
0j
#830000
0!
07
0P
1l
0G
0Q
1j
1W
0X
0U
0_
0J
0:
0#
#835000
1!
17
1P
0l
1G
1Q
0j
#840000
0!
07
0P
1l
0G
0Q
1j
0W
0`
1Y
0]
1_
1X
1U
0Y
1]
0_
0H
05
1J
0$
1:
1#
#845000
1!
17
1P
0l
1G
1Q
0j
#850000
0!
07
0P
1l
0G
0Q
1j
1W
0X
0U
1Y
0]
1_
0J
0:
0#
#855000
1!
17
1P
0l
1G
1Q
0j
#860000
0!
07
0P
1l
0G
0Q
1j
0W
0^
1`
0Y
0Z
0_
1X
1U
1_
1Z
1H
0I
15
09
1J
1$
0%
1:
1#
#865000
1!
17
1P
0l
1G
1Q
0j
#870000
0!
07
0P
1l
0G
0Q
1j
1W
0X
0U
0_
0J
0:
0#
#875000
1!
17
1P
0l
1G
1Q
0j
#880000
0!
07
0P
1l
0G
0Q
1j
0W
0`
1Y
1X
1U
0Y
0Z
0H
1Z
05
1J
0$
1:
1#
#885000
1!
17
1P
0l
1G
1Q
0j
#890000
0!
07
0P
1l
0G
0Q
1j
1W
0X
0U
1Y
0Z
0J
0:
0#
#895000
1!
17
1P
0l
1G
1Q
0j
#900000
0!
07
0P
1l
0G
0[
0Q
1\
1j
1C
1Z
1]
1_
0W
1a
1K
1X
0k
1;
1U
0Y
0]
0_
1&
0Z
1J
1:
1#
#905000
1!
17
1P
0l
1G
1Q
0j
#910000
0!
07
0P
1l
0G
0Q
1j
1W
0X
0U
1Y
1]
1_
1Z
0J
0:
0#
#915000
1!
17
1P
0l
1G
1Q
0j
#920000
0!
07
0P
1l
0G
1[
0Q
0\
1j
0C
0Z
0]
0_
0W
1^
1`
0a
0K
0Y
1Z
1]
1X
1k
0;
1U
1_
0&
1H
1I
1c
15
19
1J
0d
1$
1%
1:
0b
1e
1#
0L
0<
0)
#925000
1!
17
1P
0l
1G
1Q
0j
#930000
0!
07
0P
1l
0G
0Q
1j
1W
0X
0U
0_
0J
0:
0#
#935000
1!
17
1P
0l
1G
1Q
0j
#940000
0!
07
0P
1l
0G
0Q
1j
0W
0`
1Y
0]
1_
1X
1U
0Y
1]
0_
0H
05
1J
0$
1:
1#
#945000
1!
17
1P
0l
1G
1Q
0j
#950000
0!
07
0P
1l
0G
0Q
1j
1W
0X
0U
1Y
0]
1_
0J
0:
0#
#955000
1!
17
1P
0l
1G
1Q
0j
#960000
0!
07
0P
1l
0G
0Q
1j
0W
0^
1`
0Y
0Z
0_
1X
1U
1_
1Z
1H
0I
15
09
1J
1$
0%
1:
1#
#965000
1!
17
1P
0l
1G
1Q
0j
#970000
0!
07
0P
1l
0G
0Q
1j
1W
0X
0U
0_
0J
0:
0#
#975000
1!
17
1P
0l
1G
1Q
0j
#980000
0!
07
0P
1l
0G
0Q
1j
0W
0`
1Y
1X
1U
0Y
0Z
0H
1Z
05
1J
0$
1:
1#
#985000
1!
17
1P
0l
1G
1Q
0j
#990000
0!
07
0P
1l
0G
0Q
1j
1W
0X
0U
1Y
0Z
0J
0:
0#
#995000
1!
17
1P
0l
1G
1Q
0j
