Numarator invers/numaratorminute/simulation/qsim/numfinal.msim.vcd
$comment
	File created using the following command:
		vcd file numfinal.msim.vcd -direction
$end
$date
	Wed Feb 15 23:43:59 2023
$end
$version
	ModelSim Version 2020.1
$end
$timescale
	1ps
$end

$scope module numfinal_vhd_vec_tst $end
$var wire 1 ! clk $end
$var wire 1 " ds0 $end
$var wire 1 # ds1 $end
$var wire 1 $ ds2 $end
$var wire 1 % ds3 $end
$var wire 1 & m0 $end
$var wire 1 ' m1 $end
$var wire 1 ( m2 $end
$var wire 1 ) m3 $end
$var wire 1 * pin_name19 $end
$var wire 1 + reset $end
$var wire 1 , s0 $end
$var wire 1 - s1 $end
$var wire 1 . s2 $end
$var wire 1 / s3 $end
$var wire 1 0 set $end
$var wire 1 1 zm0 $end
$var wire 1 2 zm1 $end
$var wire 1 3 zm2 $end
$var wire 1 4 zs0 $end
$var wire 1 5 zs1 $end
$var wire 1 6 zs2 $end

$scope module i1 $end
$var wire 1 7 gnd $end
$var wire 1 8 vcc $end
$var wire 1 9 unknown $end
$var wire 1 : devoe $end
$var wire 1 ; devclrn $end
$var wire 1 < devpor $end
$var wire 1 = ww_devoe $end
$var wire 1 > ww_devclrn $end
$var wire 1 ? ww_devpor $end
$var wire 1 @ ww_pin_name19 $end
$var wire 1 A ww_set $end
$var wire 1 B ww_clk $end
$var wire 1 C ww_reset $end
$var wire 1 D ww_s0 $end
$var wire 1 E ww_s1 $end
$var wire 1 F ww_s2 $end
$var wire 1 G ww_s3 $end
$var wire 1 H ww_ds1 $end
$var wire 1 I ww_ds0 $end
$var wire 1 J ww_ds3 $end
$var wire 1 K ww_ds2 $end
$var wire 1 L ww_zs2 $end
$var wire 1 M ww_zs1 $end
$var wire 1 N ww_zs0 $end
$var wire 1 O ww_m1 $end
$var wire 1 P ww_m2 $end
$var wire 1 Q ww_m0 $end
$var wire 1 R ww_m3 $end
$var wire 1 S ww_zm1 $end
$var wire 1 T ww_zm2 $end
$var wire 1 U ww_zm0 $end
$var wire 1 V \inst|inst6~clkctrl_INCLK_bus\ [3] $end
$var wire 1 W \inst|inst6~clkctrl_INCLK_bus\ [2] $end
$var wire 1 X \inst|inst6~clkctrl_INCLK_bus\ [1] $end
$var wire 1 Y \inst|inst6~clkctrl_INCLK_bus\ [0] $end
$var wire 1 Z \inst1|inst8~clkctrl_INCLK_bus\ [3] $end
$var wire 1 [ \inst1|inst8~clkctrl_INCLK_bus\ [2] $end
$var wire 1 \ \inst1|inst8~clkctrl_INCLK_bus\ [1] $end
$var wire 1 ] \inst1|inst8~clkctrl_INCLK_bus\ [0] $end
$var wire 1 ^ \pin_name19~output_o\ $end
$var wire 1 _ \s0~output_o\ $end
$var wire 1 ` \s1~output_o\ $end
$var wire 1 a \s2~output_o\ $end
$var wire 1 b \s3~output_o\ $end
$var wire 1 c \ds1~output_o\ $end
$var wire 1 d \ds0~output_o\ $end
$var wire 1 e \ds3~output_o\ $end
$var wire 1 f \ds2~output_o\ $end
$var wire 1 g \zs2~output_o\ $end
$var wire 1 h \zs1~output_o\ $end
$var wire 1 i \zs0~output_o\ $end
$var wire 1 j \m1~output_o\ $end
$var wire 1 k \m2~output_o\ $end
$var wire 1 l \m0~output_o\ $end
$var wire 1 m \m3~output_o\ $end
$var wire 1 n \zm1~output_o\ $end
$var wire 1 o \zm2~output_o\ $end
$var wire 1 p \zm0~output_o\ $end
$var wire 1 q \set~input_o\ $end
$var wire 1 r \reset~input_o\ $end
$var wire 1 s \inst|inst|inst2~1_combout\ $end
$var wire 1 t \clk~input_o\ $end
$var wire 1 u \inst1|inst|inst~1_combout\ $end
$var wire 1 v \inst|inst|inst2~0_combout\ $end
$var wire 1 w \inst1|inst|inst~_emulated_q\ $end
$var wire 1 x \inst1|inst|inst~0_combout\ $end
$var wire 1 y \inst1|inst3~1_combout\ $end
$var wire 1 z \inst1|inst|inst2~0_combout\ $end
$var wire 1 { \inst1|inst|inst2~q\ $end
$var wire 1 | \inst1|inst|inst3~1_combout\ $end
$var wire 1 } \inst1|inst|inst3~_emulated_q\ $end
$var wire 1 ~ \inst1|inst|inst3~0_combout\ $end
$var wire 1 !! \inst1|inst|inst1~0_combout\ $end
$var wire 1 "! \inst1|inst|inst1~q\ $end
$var wire 1 #! \inst1|inst3~combout\ $end
$var wire 1 $! \inst1|inst1|inst~1_combout\ $end
$var wire 1 %! \inst1|inst1|inst~_emulated_q\ $end
$var wire 1 &! \inst1|inst1|inst~0_combout\ $end
$var wire 1 '! \inst1|inst1|inst2~0_combout\ $end
$var wire 1 (! \inst1|inst1|inst2~q\ $end
$var wire 1 )! \inst1|inst1|inst1~0_combout\ $end
$var wire 1 *! \inst1|inst1|inst1~q\ $end
$var wire 1 +! \inst1|inst8~0_combout\ $end
$var wire 1 ,! \inst1|inst1|inst3~1_combout\ $end
$var wire 1 -! \inst1|inst1|inst3~_emulated_q\ $end
$var wire 1 .! \inst1|inst1|inst3~0_combout\ $end
$var wire 1 /! \inst1|inst8~combout\ $end
$var wire 1 0! \inst1|inst8~clkctrl_outclk\ $end
$var wire 1 1! \inst1|inst2|inst~1_combout\ $end
$var wire 1 2! \inst1|inst2|inst~_emulated_q\ $end
$var wire 1 3! \inst1|inst2|inst~0_combout\ $end
$var wire 1 4! \inst1|inst2|inst1~0_combout\ $end
$var wire 1 5! \inst1|inst2|inst1~q\ $end
$var wire 1 6! \inst1|inst2|inst2~1_combout\ $end
$var wire 1 7! \inst1|inst2|inst2~_emulated_q\ $end
$var wire 1 8! \inst1|inst2|inst2~0_combout\ $end
$var wire 1 9! \inst|inst1|inst~1_combout\ $end
$var wire 1 :! \inst|inst1|inst~_emulated_q\ $end
$var wire 1 ;! \inst|inst1|inst~0_combout\ $end
$var wire 1 <! \inst|inst1|inst2~0_combout\ $end
$var wire 1 =! \inst|inst1|inst2~q\ $end
$var wire 1 >! \inst|inst1|inst1~0_combout\ $end
$var wire 1 ?! \inst|inst1|inst1~q\ $end
$var wire 1 @! \inst|inst6~0_combout\ $end
$var wire 1 A! \inst|inst1|inst3~1_combout\ $end
$var wire 1 B! \inst|inst1|inst3~_emulated_q\ $end
$var wire 1 C! \inst|inst1|inst3~0_combout\ $end
$var wire 1 D! \inst|inst6~combout\ $end
$var wire 1 E! \inst|inst6~clkctrl_outclk\ $end
$var wire 1 F! \inst|inst|inst~1_combout\ $end
$var wire 1 G! \inst|inst|inst~_emulated_q\ $end
$var wire 1 H! \inst|inst|inst~0_combout\ $end
$var wire 1 I! \inst|inst|inst1~0_combout\ $end
$var wire 1 J! \inst|inst|inst1~q\ $end
$var wire 1 K! \inst|inst|inst2~3_combout\ $end
$var wire 1 L! \inst|inst|inst2~_emulated_q\ $end
$var wire 1 M! \inst|inst|inst2~2_combout\ $end
$var wire 1 N! \inst|inst|ALT_INV_inst2~0_combout\ $end
$var wire 1 O! \ALT_INV_clk~input_o\ $end
$upscope $end
$upscope $end
$enddefinitions $end
#0
$dumpvars
0!
1"
0#
0$
1%
1&
0'
0(
1)
1*
1+
1,
0-
0.
1/
00
11
02
13
14
05
16
07
18
x9
1:
1;
1<
1=
1>
1?
1@
0A
0B
1C
1D
0E
0F
1G
0H
1I
1J
0K
1L
0M
1N
0O
0P
1Q
1R
0S
1T
1U
1^
1_
0`
0a
1b
0c
1d
1e
0f
1g
0h
1i
0j
0k
1l
1m
0n
1o
1p
0q
1r
1s
0t
1u
1v
0w
1x
0y
0z
0{
0|
0}
1~
0!!
0"!
1#!
1$!
0%!
1&!
0'!
0(!
0)!
0*!
0+!
0,!
0-!
1.!
1/!
10!
11!
02!
13!
04!
05!
06!
07!
18!
19!
0:!
1;!
0<!
0=!
0>!
0?!
0@!
0A!
0B!
1C!
1D!
1E!
1F!
0G!
1H!
0I!
0J!
0K!
0L!
1M!
0N!
1O!
1Z
1[
1\
1]
1V
1W
1X
1Y
$end
#5000
1!
1B
1t
0O!
#10000
0!
10
0B
1A
1q
0t
1O!
0v
1N!
#15000
1!
1B
1t
0O!
#20000
0!
0B
0t
1O!
1w
0x
0u
1y
1z
1!!
1|
0d
0I
0"
#25000
1!
1B
1t
0O!
#30000
0!
0B
0t
1O!
0w
1{
1}
1"!
0y
0~
0!!
1x
1u
1!!
1c
1f
1H
1K
1d
0e
1#
1$
1I
0J
1"
0%
#35000
1!
1B
1t
0O!
#40000
0!
0B
0t
1O!
1w
0x
0u
0!!
0d
0I
0"
#45000
1!
1B
1t
0O!
#50000
0!
0B
0t
1O!
0w
0"!
1y
0z
1!!
1x
1u
0y
1z
0!!
0c
0H
1d
0#
1I
1"
#55000
1!
1B
1t
0O!
#60000
0!
0B
0t
1O!
1w
0x
0u
1y
0z
1!!
0d
0I
0"
#65000
1!
1B
1t
0O!
#70000
0!
0B
0t
1O!
0w
0{
1"!
0y
0|
0!!
1x
1u
1!!
1|
1c
0f
1H
0K
1d
1#
0$
1I
1"
#75000
1!
1B
1t
0O!
#80000
0!
0B
0t
1O!
1w
0x
0u
0!!
0d
0I
0"
#85000
1!
1B
1t
0O!
#90000
0!
0B
0t
1O!
0w
0"!
1y
0#!
1x
1u
0y
1#!
0|
0c
1%!
1|
0H
1d
0#
0&!
1I
1"
0$!
1'!
1)!
1+!
1,!
0_
0D
0,
#95000
1!
1B
1t
0O!
#100000
0!
0B
0t
1O!
1w
0x
0u
1y
0#!
0|
0d
0I
0"
#105000
1!
1B
1t
0O!
#110000
0!
0B
0t
1O!
0w
0}
1~
1x
1u
0y
1|
1#!
0%!
1(!
1*!
1-!
0|
1d
1e
0.!
0+!
0)!
1&!
1I
1J
1"
1%
1$!
1)!
1`
1a
1E
1F
1_
0b
1-
1.
1D
0G
1,
0/
#115000
1!
1B
1t
0O!
#120000
0!
0B
0t
1O!
1w
0x
0u
1y
1z
1!!
1|
0d
0I
0"
#125000
1!
1B
1t
0O!
#130000
0!
0B
0t
1O!
0w
1{
1}
1"!
0y
0~
0!!
1x
1u
1!!
1c
1f
1H
1K
1d
0e
1#
1$
1I
0J
1"
0%
#135000
1!
1B
1t
0O!
#140000
0!
0B
0t
1O!
1w
0x
0u
0!!
0d
0I
0"
#145000
1!
1B
1t
0O!
#150000
0!
0B
0t
1O!
0w
0"!
1y
0z
1!!
1x
1u
0y
1z
0!!
0c
0H
1d
0#
1I
1"
#155000
1!
1B
1t
0O!
#160000
0!
0B
0t
1O!
1w
0x
0u
1y
0z
1!!
0d
0I
0"
#165000
1!
1B
1t
0O!
#170000
0!
0B
0t
1O!
0w
0{
1"!
0y
0|
0!!
1x
1u
1!!
1|
1c
0f
1H
0K
1d
1#
0$
1I
1"
#175000
1!
1B
1t
0O!
#180000
0!
0B
0t
1O!
1w
0x
0u
0!!
0d
0I
0"
#185000
1!
1B
1t
0O!
#190000
0!
0B
0t
1O!
0w
0"!
1y
0#!
1x
1u
0y
1#!
0|
0c
1%!
1|
0H
1d
0#
0&!
1I
1"
0$!
0)!
0_
0D
0,
#195000
1!
1B
1t
0O!
#200000
0!
0B
0t
1O!
1w
0x
0u
1y
0#!
0|
0d
0I
0"
#205000
1!
1B
1t
0O!
#210000
0!
0B
0t
1O!
0w
0}
1~
1x
1u
0y
1|
1#!
0%!
0*!
0|
1d
1e
0'!
1)!
1+!
1&!
1I
1J
1"
1%
1$!
1'!
0)!
0+!
0`
0E
1_
0-
1D
1,
#215000
1!
1B
1t
0O!
#220000
0!
0B
0t
1O!
1w
0x
0u
1y
1z
1!!
1|
0d
0I
0"
#225000
1!
1B
1t
0O!
#230000
0!
0B
0t
1O!
0w
1{
1}
1"!
0y
0~
0!!
1x
1u
1!!
1c
1f
1H
1K
1d
0e
1#
1$
1I
0J
1"
0%
#235000
1!
1B
1t
0O!
#240000
0!
0B
0t
1O!
1w
0x
0u
0!!
0d
0I
0"
#245000
1!
1B
1t
0O!
#250000
0!
0B
0t
1O!
0w
0"!
1y
0z
1!!
1x
1u
0y
1z
0!!
0c
0H
1d
0#
1I
1"
#255000
1!
1B
1t
0O!
#260000
0!
0B
0t
1O!
1w
0x
0u
1y
0z
1!!
0d
0I
0"
#265000
1!
1B
1t
0O!
#270000
0!
0B
0t
1O!
0w
0{
1"!
0y
0|
0!!
1x
1u
1!!
1|
1c
0f
1H
0K
1d
1#
0$
1I
1"
#275000
1!
1B
1t
0O!
#280000
0!
0B
0t
1O!
1w
0x
0u
0!!
0d
0I
0"
#285000
1!
1B
1t
0O!
#290000
0!
0B
0t
1O!
0w
0"!
1y
0#!
1x
1u
0y
1#!
0|
0c
1%!
1|
0H
1d
0#
0&!
1I
1"
0$!
0'!
1)!
1+!
0_
0D
0,
#295000
1!
1B
1t
0O!
#300000
0!
0B
0t
1O!
1w
0x
0u
1y
0#!
0|
0d
0I
0"
#305000
1!
1B
1t
0O!
#310000
0!
0B
0t
1O!
0w
0}
1~
1x
1u
0y
1|
1#!
0%!
0(!
1*!
0|
1d
1e
0+!
0)!
0,!
1&!
1I
1J
1"
1%
1$!
1)!
1,!
1`
0a
1E
0F
1_
1-
0.
1D
1,
#315000
1!
1B
1t
0O!
#320000
0!
0B
0t
1O!
1w
0x
0u
1y
1z
1!!
1|
0d
0I
0"
#325000
1!
1B
1t
0O!
#330000
0!
0B
0t
1O!
0w
1{
1}
1"!
0y
0~
0!!
1x
1u
1!!
1c
1f
1H
1K
1d
0e
1#
1$
1I
0J
1"
0%
#335000
1!
1B
1t
0O!
#340000
0!
0B
0t
1O!
1w
0x
0u
0!!
0d
0I
0"
#345000
1!
1B
1t
0O!
#350000
0!
0B
0t
1O!
0w
0"!
1y
0z
1!!
1x
1u
0y
1z
0!!
0c
0H
1d
0#
1I
1"
#355000
1!
1B
1t
0O!
#360000
0!
0B
0t
1O!
1w
0x
0u
1y
0z
1!!
0d
0I
0"
#365000
1!
1B
1t
0O!
#370000
0!
0B
0t
1O!
0w
0{
1"!
0y
0|
0!!
1x
1u
1!!
1|
1c
0f
1H
0K
1d
1#
0$
1I
1"
#375000
1!
1B
1t
0O!
#380000
0!
0B
0t
1O!
1w
0x
0u
0!!
0d
0I
0"
#385000
1!
1B
1t
0O!
#390000
0!
0B
0t
1O!
0w
0"!
1y
0#!
1x
1u
0y
1#!
0|
0c
1%!
1|
0H
1d
0#
0&!
1I
1"
0$!
0)!
0_
0D
0,
#395000
1!
1B
1t
0O!
#400000
0!
0B
0t
1O!
1w
0x
0u
1y
0#!
0|
0d
0I
0"
#405000
1!
1B
1t
0O!
#410000
0!
0B
0t
1O!
0w
0}
1~
1x
1u
0y
1|
1#!
0%!
0*!
0|
1d
1e
1+!
0/!
1&!
1I
1J
0]
1"
1%
1$!
0+!
1/!
0,!
0`
1]
1,!
0E
1_
00!
0-
1D
10!
1,
12!
03!
01!
14!
16!
0i
0N
04
#415000
1!
1B
1t
0O!
#420000
0!
0B
0t
1O!
1w
0x
0u
1y
1z
1!!
1|
0d
0I
0"
#425000
1!
1B
1t
0O!
#430000
0!
0B
0t
1O!
0w
1{
1}
1"!
0y
0~
0!!
1x
1u
1!!
1c
1f
1H
1K
1d
0e
1#
1$
1I
0J
1"
0%
#435000
1!
1B
1t
0O!
#440000
0!
0B
0t
1O!
1w
0x
0u
0!!
0d
0I
0"
#445000
1!
1B
1t
0O!
#450000
0!
0B
0t
1O!
0w
0"!
1y
0z
1!!
1x
1u
0y
1z
0!!
0c
0H
1d
0#
1I
1"
#455000
1!
1B
1t
0O!
#460000
0!
0B
0t
1O!
1w
0x
0u
1y
0z
1!!
0d
0I
0"
#465000
1!
1B
1t
0O!
#470000
0!
0B
0t
1O!
0w
0{
1"!
0y
0|
0!!
1x
1u
1!!
1|
1c
0f
1H
0K
1d
1#
0$
1I
1"
#475000
1!
1B
1t
0O!
#480000
0!
0B
0t
1O!
1w
0x
0u
0!!
0d
0I
0"
#485000
1!
1B
1t
0O!
#490000
0!
0B
0t
1O!
0w
0"!
1y
0#!
1x
1u
0y
1#!
0|
0c
1%!
1|
0H
1d
0#
0&!
1I
1"
0$!
1+!
0/!
0]
0,!
0_
0D
00!
0,
#495000
1!
1B
1t
0O!
#500000
0!
0B
0t
1O!
1w
0x
0u
1y
0#!
0|
0d
0I
0"
#505000
1!
1B
1t
0O!
#510000
0!
0B
0t
1O!
0w
0}
1~
1x
1u
0y
1|
1#!
0%!
0-!
0|
1d
1e
1.!
1&!
1I
1J
1"
1%
1$!
0+!
1,!
1/!
1]
17!
0,!
1_
1b
08!
1D
1G
10!
1,
1/
04!
06!
02!
15!
0g
16!
13!
0L
11!
14!
06
1h
1M
1i
15
1N
14
#515000
1!
1B
1t
0O!
#520000
0!
0B
0t
1O!
1w
0x
0u
1y
1z
1!!
1|
0d
0I
0"
#525000
1!
1B
1t
0O!
#530000
0!
0B
0t
1O!
0w
1{
1}
1"!
0y
0~
0!!
1x
1u
1!!
1c
1f
1H
1K
1d
0e
1#
1$
1I
0J
1"
0%
#535000
1!
1B
1t
0O!
#540000
0!
0B
0t
1O!
1w
0x
0u
0!!
0d
0I
0"
#545000
1!
1B
1t
0O!
#550000
0!
0B
0t
1O!
0w
0"!
1y
0z
1!!
1x
1u
0y
1z
0!!
0c
0H
1d
0#
1I
1"
#555000
1!
1B
1t
0O!
#560000
0!
0B
0t
1O!
1w
0x
0u
1y
0z
1!!
0d
0I
0"
#565000
1!
1B
1t
0O!
#570000
0!
0B
0t
1O!
0w
0{
1"!
0y
0|
0!!
1x
1u
1!!
1|
1c
0f
1H
0K
1d
1#
0$
1I
1"
#575000
1!
1B
1t
0O!
#580000
0!
0B
0t
1O!
1w
0x
0u
0!!
0d
0I
0"
#585000
1!
1B
1t
0O!
#590000
0!
0B
0t
1O!
0w
0"!
1y
0#!
1x
1u
0y
1#!
0|
0c
1%!
1|
0H
1d
0#
0&!
1I
1"
0$!
1'!
1)!
1+!
1,!
0_
0D
0,
#595000
1!
1B
1t
0O!
#600000
0!
0B
0t
1O!
1w
0x
0u
1y
0#!
0|
0d
0I
0"
#605000
1!
1B
1t
0O!
#610000
0!
0B
0t
1O!
0w
0}
1~
1x
1u
0y
1|
1#!
0%!
1(!
1*!
1-!
0|
1d
1e
0.!
0+!
0)!
1&!
1I
1J
1"
1%
1$!
1)!
1`
1a
1E
1F
1_
0b
1-
1.
1D
0G
1,
0/
#615000
1!
1B
1t
0O!
#620000
0!
0B
0t
1O!
1w
0x
0u
1y
1z
1!!
1|
0d
0I
0"
#625000
1!
1B
1t
0O!
#630000
0!
0B
0t
1O!
0w
1{
1}
1"!
0y
0~
0!!
1x
1u
1!!
1c
1f
1H
1K
1d
0e
1#
1$
1I
0J
1"
0%
#635000
1!
1B
1t
0O!
#640000
0!
0B
0t
1O!
1w
0x
0u
0!!
0d
0I
0"
#645000
1!
1B
1t
0O!
#650000
0!
0B
0t
1O!
0w
0"!
1y
0z
1!!
1x
1u
0y
1z
0!!
0c
0H
1d
0#
1I
1"
#655000
1!
1B
1t
0O!
#660000
0!
0B
0t
1O!
1w
0x
0u
1y
0z
1!!
0d
0I
0"
#665000
1!
1B
1t
0O!
#670000
0!
0B
0t
1O!
0w
0{
1"!
0y
0|
0!!
1x
1u
1!!
1|
1c
0f
1H
0K
1d
1#
0$
1I
1"
#675000
1!
1B
1t
0O!
#680000
0!
0B
0t
1O!
1w
0x
0u
0!!
0d
0I
0"
#685000
1!
1B
1t
0O!
#690000
0!
0B
0t
1O!
0w
0"!
1y
0#!
1x
1u
0y
1#!
0|
0c
1%!
1|
0H
1d
0#
0&!
1I
1"
0$!
0)!
0_
0D
0,
#695000
1!
1B
1t
0O!
#700000
0!
0B
0t
1O!
1w
0x
0u
1y
0#!
0|
0d
0I
0"
#705000
1!
1B
1t
0O!
#710000
0!
0B
0t
1O!
0w
0}
1~
1x
1u
0y
1|
1#!
0%!
0*!
0|
1d
1e
0'!
1)!
1+!
1&!
1I
1J
1"
1%
1$!
1'!
0)!
0+!
0`
0E
1_
0-
1D
1,
#715000
1!
1B
1t
0O!
#720000
0!
0B
0t
1O!
1w
0x
0u
1y
1z
1!!
1|
0d
0I
0"
#725000
1!
1B
1t
0O!
#730000
0!
0B
0t
1O!
0w
1{
1}
1"!
0y
0~
0!!
1x
1u
1!!
1c
1f
1H
1K
1d
0e
1#
1$
1I
0J
1"
0%
#735000
1!
1B
1t
0O!
#740000
0!
0B
0t
1O!
1w
0x
0u
0!!
0d
0I
0"
#745000
1!
1B
1t
0O!
#750000
0!
0B
0t
1O!
0w
0"!
1y
0z
1!!
1x
1u
0y
1z
0!!
0c
0H
1d
0#
1I
1"
#755000
1!
1B
1t
0O!
#760000
0!
0B
0t
1O!
1w
0x
0u
1y
0z
1!!
0d
0I
0"
#765000
1!
1B
1t
0O!
#770000
0!
0B
0t
1O!
0w
0{
1"!
0y
0|
0!!
1x
1u
1!!
1|
1c
0f
1H
0K
1d
1#
0$
1I
1"
#775000
1!
1B
1t
0O!
#780000
0!
0B
0t
1O!
1w
0x
0u
0!!
0d
0I
0"
#785000
1!
1B
1t
0O!
#790000
0!
0B
0t
1O!
0w
0"!
1y
0#!
1x
1u
0y
1#!
0|
0c
1%!
1|
0H
1d
0#
0&!
1I
1"
0$!
0'!
1)!
1+!
0_
0D
0,
#795000
1!
1B
1t
0O!
#800000
0!
0B
0t
1O!
1w
0x
0u
1y
0#!
0|
0d
0I
0"
#805000
1!
1B
1t
0O!
#810000
0!
0B
0t
1O!
0w
0}
1~
1x
1u
0y
1|
1#!
0%!
0(!
1*!
0|
1d
1e
0+!
0)!
0,!
1&!
1I
1J
1"
1%
1$!
1)!
1,!
1`
0a
1E
0F
1_
1-
0.
1D
1,
#815000
1!
1B
1t
0O!
#820000
0!
0B
0t
1O!
1w
0x
0u
1y
1z
1!!
1|
0d
0I
0"
#825000
1!
1B
1t
0O!
#830000
0!
0B
0t
1O!
0w
1{
1}
1"!
0y
0~
0!!
1x
1u
1!!
1c
1f
1H
1K
1d
0e
1#
1$
1I
0J
1"
0%
#835000
1!
1B
1t
0O!
#840000
0!
0B
0t
1O!
1w
0x
0u
0!!
0d
0I
0"
#845000
1!
1B
1t
0O!
#850000
0!
0B
0t
1O!
0w
0"!
1y
0z
1!!
1x
1u
0y
1z
0!!
0c
0H
1d
0#
1I
1"
#855000
1!
1B
1t
0O!
#860000
0!
0B
0t
1O!
1w
0x
0u
1y
0z
1!!
0d
0I
0"
#865000
1!
1B
1t
0O!
#870000
0!
0B
0t
1O!
0w
0{
1"!
0y
0|
0!!
1x
1u
1!!
1|
1c
0f
1H
0K
1d
1#
0$
1I
1"
#875000
1!
1B
1t
0O!
#880000
0!
0B
0t
1O!
1w
0x
0u
0!!
0d
0I
0"
#885000
1!
1B
1t
0O!
#890000
0!
0B
0t
1O!
0w
0"!
1y
0#!
1x
1u
0y
1#!
0|
0c
1%!
1|
0H
1d
0#
0&!
1I
1"
0$!
0)!
0_
0D
0,
#895000
1!
1B
1t
0O!
#900000
0!
0B
0t
1O!
1w
0x
0u
1y
0#!
0|
0d
0I
0"
#905000
1!
1B
1t
0O!
#910000
0!
0B
0t
1O!
0w
0}
1~
1x
1u
0y
1|
1#!
0%!
0*!
0|
1d
1e
1+!
0/!
1&!
1I
1J
0]
1"
1%
1$!
0+!
1/!
0,!
0`
1]
1,!
0E
1_
00!
0-
1D
10!
1,
12!
03!
01!
04!
0i
0N
04
#915000
1!
1B
1t
0O!
#920000
0!
0B
0t
1O!
1w
0x
0u
1y
1z
1!!
1|
0d
0I
0"
#925000
1!
1B
1t
0O!
#930000
0!
0B
0t
1O!
0w
1{
1}
1"!
0y
0~
0!!
1x
1u
1!!
1c
1f
1H
1K
1d
0e
1#
1$
1I
0J
1"
0%
#935000
1!
1B
1t
0O!
#940000
0!
0B
0t
1O!
1w
0x
0u
0!!
0d
0I
0"
#945000
1!
1B
1t
0O!
#950000
0!
0B
0t
1O!
0w
0"!
1y
0z
1!!
1x
1u
0y
1z
0!!
0c
0H
1d
0#
1I
1"
#955000
1!
1B
1t
0O!
#960000
0!
0B
0t
1O!
1w
0x
0u
1y
0z
1!!
0d
0I
0"
#965000
1!
1B
1t
0O!
#970000
0!
0B
0t
1O!
0w
0{
1"!
0y
0|
0!!
1x
1u
1!!
1|
1c
0f
1H
0K
1d
1#
0$
1I
1"
#975000
1!
1B
1t
0O!
#980000
0!
0B
0t
1O!
1w
0x
0u
0!!
0d
0I
0"
#985000
1!
1B
1t
0O!
#990000
0!
0B
0t
1O!
0w
0"!
1y
0#!
1x
1u
0y
1#!
0|
0c
1%!
1|
0H
1d
0#
0&!
1I
1"
0$!
1+!
0/!
0]
0,!
0_
0D
00!
0,
#995000
1!
1B
1t
0O!
#1000000
0!
0B
0t
1O!
1w
0x
0u
1y
0#!
0|
0d
0I
0"
#1005000
1!
1B
1t
0O!
#1010000
0!
0B
0t
1O!
0w
0}
1~
1x
1u
0y
1|
1#!
0%!
0-!
0|
1d
1e
1.!
1&!
1I
1J
1"
1%
1$!
0+!
1,!
1/!
1]
0,!
1_
1b
1D
1G
10!
1,
1/
02!
05!
06!
13!
11!
16!
0h
0M
1i
05
1N
14
#1015000
1!
1B
1t
0O!
#1020000
0!
0B
0t
1O!
1w
0x
0u
1y
1z
1!!
1|
0d
0I
0"
#1025000
1!
1B
1t
0O!
#1030000
0!
0B
0t
1O!
0w
1{
1}
1"!
0y
0~
0!!
1x
1u
1!!
1c
1f
1H
1K
1d
0e
1#
1$
1I
0J
1"
0%
#1035000
1!
1B
1t
0O!
#1040000
0!
0B
0t
1O!
1w
0x
0u
0!!
0d
0I
0"
#1045000
1!
1B
1t
0O!
#1050000
0!
0B
0t
1O!
0w
0"!
1y
0z
1!!
1x
1u
0y
1z
0!!
0c
0H
1d
0#
1I
1"
#1055000
1!
1B
1t
0O!
#1060000
0!
0B
0t
1O!
1w
0x
0u
1y
0z
1!!
0d
0I
0"
#1065000
1!
1B
1t
0O!
#1070000
0!
0B
0t
1O!
0w
0{
1"!
0y
0|
0!!
1x
1u
1!!
1|
1c
0f
1H
0K
1d
1#
0$
1I
1"
#1075000
1!
1B
1t
0O!
#1080000
0!
0B
0t
1O!
1w
0x
0u
0!!
0d
0I
0"
#1085000
1!
1B
1t
0O!
#1090000
0!
0B
0t
1O!
0w
0"!
1y
0#!
1x
1u
0y
1#!
0|
0c
1%!
1|
0H
1d
0#
0&!
1I
1"
0$!
1'!
1)!
1+!
1,!
0_
0D
0,
#1095000
1!
1B
1t
0O!
#1100000
0!
0B
0t
1O!
1w
0x
0u
1y
0#!
0|
0d
0I
0"
#1105000
1!
1B
1t
0O!
#1110000
0!
0B
0t
1O!
0w
0}
1~
1x
1u
0y
1|
1#!
0%!
1(!
1*!
1-!
0|
1d
1e
0.!
0+!
0)!
1&!
1I
1J
1"
1%
1$!
1)!
1`
1a
1E
1F
1_
0b
1-
1.
1D
0G
1,
0/
#1115000
1!
1B
1t
0O!
#1120000
0!
0B
0t
1O!
1w
0x
0u
1y
1z
1!!
1|
0d
0I
0"
#1125000
1!
1B
1t
0O!
#1130000
0!
0B
0t
1O!
0w
1{
1}
1"!
0y
0~
0!!
1x
1u
1!!
1c
1f
1H
1K
1d
0e
1#
1$
1I
0J
1"
0%
#1135000
1!
1B
1t
0O!
#1140000
0!
0B
0t
1O!
1w
0x
0u
0!!
0d
0I
0"
#1145000
1!
1B
1t
0O!
#1150000
0!
0B
0t
1O!
0w
0"!
1y
0z
1!!
1x
1u
0y
1z
0!!
0c
0H
1d
0#
1I
1"
#1155000
1!
1B
1t
0O!
#1160000
0!
0B
0t
1O!
1w
0x
0u
1y
0z
1!!
0d
0I
0"
#1165000
1!
1B
1t
0O!
#1170000
0!
0B
0t
1O!
0w
0{
1"!
0y
0|
0!!
1x
1u
1!!
1|
1c
0f
1H
0K
1d
1#
0$
1I
1"
#1175000
1!
1B
1t
0O!
#1180000
0!
0B
0t
1O!
1w
0x
0u
0!!
0d
0I
0"
#1185000
1!
1B
1t
0O!
#1190000
0!
0B
0t
1O!
0w
0"!
1y
0#!
1x
1u
0y
1#!
0|
0c
1%!
1|
0H
1d
0#
0&!
1I
1"
0$!
0)!
0_
0D
0,
#1195000
1!
1B
1t
0O!
#1200000
0!
0B
0t
1O!
1w
0x
0u
1y
0#!
0|
0d
0I
0"
#1205000
1!
1B
1t
0O!
#1210000
0!
0B
0t
1O!
0w
0}
1~
1x
1u
0y
1|
1#!
0%!
0*!
0|
1d
1e
0'!
1)!
1+!
1&!
1I
1J
1"
1%
1$!
1'!
0)!
0+!
0`
0E
1_
0-
1D
1,
#1215000
1!
1B
1t
0O!
#1220000
0!
0B
0t
1O!
1w
0x
0u
1y
1z
1!!
1|
0d
0I
0"
#1225000
1!
1B
1t
0O!
#1230000
0!
0B
0t
1O!
0w
1{
1}
1"!
0y
0~
0!!
1x
1u
1!!
1c
1f
1H
1K
1d
0e
1#
1$
1I
0J
1"
0%
#1235000
1!
1B
1t
0O!
#1240000
0!
0B
0t
1O!
1w
0x
0u
0!!
0d
0I
0"
#1245000
1!
1B
1t
0O!
#1250000
0!
0B
0t
1O!
0w
0"!
1y
0z
1!!
1x
1u
0y
1z
0!!
0c
0H
1d
0#
1I
1"
#1255000
1!
1B
1t
0O!
#1260000
0!
0B
0t
1O!
1w
0x
0u
1y
0z
1!!
0d
0I
0"
#1265000
1!
1B
1t
0O!
#1270000
0!
0B
0t
1O!
0w
0{
1"!
0y
0|
0!!
1x
1u
1!!
1|
1c
0f
1H
0K
1d
1#
0$
1I
1"
#1275000
1!
1B
1t
0O!
#1280000
0!
0B
0t
1O!
1w
0x
0u
0!!
0d
0I
0"
#1285000
1!
1B
1t
0O!
