Numarator invers/Numarator 6/simulation/qsim/num6invers.msim.vcd
$comment
	File created using the following command:
		vcd file num6invers.msim.vcd -direction
$end
$date
	Wed Feb 15 15:06:48 2023
$end
$version
	ModelSim Version 2020.1
$end
$timescale
	1ps
$end

$scope module num6invers_vhd_vec_tst $end
$var wire 1 ! ck $end
$var wire 1 " q0 $end
$var wire 1 # q1 $end
$var wire 1 $ q2 $end
$var wire 1 % reset $end

$scope module i1 $end
$var wire 1 & gnd $end
$var wire 1 ' vcc $end
$var wire 1 ( unknown $end
$var wire 1 ) devoe $end
$var wire 1 * devclrn $end
$var wire 1 + devpor $end
$var wire 1 , ww_devoe $end
$var wire 1 - ww_devclrn $end
$var wire 1 . ww_devpor $end
$var wire 1 / ww_q0 $end
$var wire 1 0 ww_reset $end
$var wire 1 1 ww_ck $end
$var wire 1 2 ww_q1 $end
$var wire 1 3 ww_q2 $end
$var wire 1 4 \reset~inputclkctrl_INCLK_bus\ [3] $end
$var wire 1 5 \reset~inputclkctrl_INCLK_bus\ [2] $end
$var wire 1 6 \reset~inputclkctrl_INCLK_bus\ [1] $end
$var wire 1 7 \reset~inputclkctrl_INCLK_bus\ [0] $end
$var wire 1 8 \ck~inputclkctrl_INCLK_bus\ [3] $end
$var wire 1 9 \ck~inputclkctrl_INCLK_bus\ [2] $end
$var wire 1 : \ck~inputclkctrl_INCLK_bus\ [1] $end
$var wire 1 ; \ck~inputclkctrl_INCLK_bus\ [0] $end
$var wire 1 < \q0~output_o\ $end
$var wire 1 = \q1~output_o\ $end
$var wire 1 > \q2~output_o\ $end
$var wire 1 ? \ck~input_o\ $end
$var wire 1 @ \ck~inputclkctrl_outclk\ $end
$var wire 1 A \inst~0_combout\ $end
$var wire 1 B \reset~input_o\ $end
$var wire 1 C \reset~inputclkctrl_outclk\ $end
$var wire 1 D \inst~q\ $end
$var wire 1 E \inst2~0_combout\ $end
$var wire 1 F \inst2~q\ $end
$var wire 1 G \inst1~0_combout\ $end
$var wire 1 H \inst1~q\ $end
$var wire 1 I \ALT_INV_ck~inputclkctrl_outclk\ $end
$upscope $end
$upscope $end
$enddefinitions $end
#0
$dumpvars
0!
0"
0#
0$
1%
0&
1'
x(
1)
1*
1+
1,
1-
1.
0/
10
01
02
03
0<
0=
0>
0?
0@
1A
1B
1C
0D
1E
0F
0G
0H
1I
18
19
1:
0;
14
15
16
17
$end
#5000
1!
11
1?
1;
1@
0I
#10000
0!
01
0?
0;
0@
1I
1D
1F
0A
1>
1<
13
1/
1$
1"
#15000
1!
11
1?
1;
1@
0I
#20000
0!
01
0?
0;
0@
1I
0D
1A
0E
1G
0<
0/
0"
#25000
1!
11
1?
1;
1@
0I
#30000
0!
01
0?
0;
0@
1I
1D
0F
1H
0A
1=
0>
1<
12
03
1/
1#
0$
1"
#35000
1!
11
1?
1;
1@
0I
#40000
0!
01
0?
0;
0@
1I
0D
1A
0G
0<
0/
0"
#45000
1!
11
1?
1;
1@
0I
#50000
0!
01
0?
0;
0@
1I
1D
0H
0A
0=
1<
02
1/
0#
1"
#55000
1!
11
1?
1;
1@
0I
#60000
0!
01
0?
0;
0@
1I
0D
1A
1E
0<
0/
0"
#65000
1!
11
1?
1;
1@
0I
#70000
0!
01
0?
0;
0@
1I
1D
1F
0A
1>
1<
13
1/
1$
1"
#75000
1!
11
1?
1;
1@
0I
#80000
0!
01
0?
0;
0@
1I
0D
1A
0E
1G
0<
0/
0"
#85000
1!
11
1?
1;
1@
0I
#90000
0!
01
0?
0;
0@
1I
1D
0F
1H
0A
1=
0>
1<
12
03
1/
1#
0$
1"
#95000
1!
11
1?
1;
1@
0I
#100000
0!
01
0?
0;
0@
1I
0D
1A
0G
0<
0/
0"
#105000
1!
11
1?
1;
1@
0I
#110000
0!
01
0?
0;
0@
1I
1D
0H
0A
0=
1<
02
1/
0#
1"
#115000
1!
11
1?
1;
1@
0I
#120000
0!
01
0?
0;
0@
1I
0D
1A
1E
0<
0/
0"
#125000
1!
11
1?
1;
1@
0I
#130000
0!
01
0?
0;
0@
1I
1D
1F
0A
1>
1<
13
1/
1$
1"
#135000
1!
11
1?
1;
1@
0I
#140000
0!
01
0?
0;
0@
1I
0D
1A
0E
1G
0<
0/
0"
#145000
1!
11
1?
1;
1@
0I
#150000
0!
01
0?
0;
0@
1I
1D
0F
1H
0A
1=
0>
1<
12
03
1/
1#
0$
1"
#155000
1!
11
1?
1;
1@
0I
#160000
0!
0%
01
00
0B
0?
07
0;
0@
0C
1I
0D
0H
1A
1E
0G
0=
0<
02
0/
0#
0"
#165000
1!
11
1?
1;
1@
0I
#170000
0!
1%
01
10
1B
0?
17
0;
0@
1C
1I
1D
1F
0A
1>
1<
13
1/
1$
1"
#175000
1!
11
1?
1;
1@
0I
#180000
0!
01
0?
0;
0@
1I
0D
1A
0E
1G
0<
0/
0"
#185000
1!
11
1?
1;
1@
0I
#190000
0!
01
0?
0;
0@
1I
1D
0F
1H
0A
1=
0>
1<
12
03
1/
1#
0$
1"
#195000
1!
11
1?
1;
1@
0I
#200000
0!
01
0?
0;
0@
1I
0D
1A
0G
0<
0/
0"
#205000
1!
11
1?
1;
1@
0I
#210000
0!
01
0?
0;
0@
1I
1D
0H
0A
0=
1<
02
1/
0#
1"
#215000
1!
11
1?
1;
1@
0I
#220000
0!
01
0?
0;
0@
1I
0D
1A
1E
0<
0/
0"
#225000
1!
11
1?
1;
1@
0I
#230000
0!
01
0?
0;
0@
1I
1D
1F
0A
1>
1<
13
1/
1$
1"
#235000
1!
11
1?
1;
1@
0I
#240000
0!
01
0?
0;
0@
1I
0D
1A
0E
1G
0<
0/
0"
#245000
1!
11
1?
1;
1@
0I
#250000
0!
01
0?
0;
0@
1I
1D
0F
1H
0A
1=
0>
1<
12
03
1/
1#
0$
1"
#255000
1!
11
1?
1;
1@
0I
#260000
0!
01
0?
0;
0@
1I
0D
1A
0G
0<
0/
0"
#265000
1!
11
1?
1;
1@
0I
#270000
0!
01
0?
0;
0@
1I
1D
0H
0A
0=
1<
02
1/
0#
1"
#275000
1!
11
1?
1;
1@
0I
#280000
0!
01
0?
0;
0@
1I
0D
1A
1E
0<
0/
0"
#285000
1!
11
1?
1;
1@
0I
#290000
0!
01
0?
0;
0@
1I
1D
1F
0A
1>
1<
13
1/
1$
1"
#295000
1!
11
1?
1;
1@
0I
#300000
0!
01
0?
0;
0@
1I
0D
1A
0E
1G
0<
0/
0"
#305000
1!
11
1?
1;
1@
0I
#310000
0!
01
0?
0;
0@
1I
1D
0F
1H
0A
1=
0>
1<
12
03
1/
1#
0$
1"
#315000
1!
11
1?
1;
1@
0I
#320000
0!
01
0?
0;
0@
1I
0D
1A
0G
0<
0/
0"
#325000
1!
11
1?
1;
1@
0I
#330000
0!
01
0?
0;
0@
1I
1D
0H
0A
0=
1<
02
1/
0#
1"
#335000
1!
11
1?
1;
1@
0I
#340000
0!
01
0?
0;
0@
1I
0D
1A
1E
0<
0/
0"
#345000
1!
11
1?
1;
1@
0I
#350000
0!
01
0?
0;
0@
1I
1D
1F
0A
1>
1<
13
1/
1$
1"
#355000
1!
11
1?
1;
1@
0I
#360000
0!
01
0?
0;
0@
1I
0D
1A
0E
1G
0<
0/
0"
#365000
1!
11
1?
1;
1@
0I
#370000
0!
01
0?
0;
0@
1I
1D
0F
1H
0A
1=
0>
1<
12
03
1/
1#
0$
1"
#375000
1!
11
1?
1;
1@
0I
#380000
0!
01
0?
0;
0@
1I
0D
1A
0G
0<
0/
0"
#385000
1!
11
1?
1;
1@
0I
#390000
0!
01
0?
0;
0@
1I
1D
0H
0A
0=
1<
02
1/
0#
1"
#395000
1!
11
1?
1;
1@
0I
#400000
0!
01
0?
0;
0@
1I
0D
1A
1E
0<
0/
0"
#405000
1!
11
1?
1;
1@
0I
#410000
0!
01
0?
0;
0@
1I
1D
1F
0A
1>
1<
13
1/
1$
1"
#415000
1!
11
1?
1;
1@
0I
#420000
0!
01
0?
0;
0@
1I
0D
1A
0E
1G
0<
0/
0"
#425000
1!
11
1?
1;
1@
0I
#430000
0!
01
0?
0;
0@
1I
1D
0F
1H
0A
1=
0>
1<
12
03
1/
1#
0$
1"
#435000
1!
11
1?
1;
1@
0I
#440000
0!
01
0?
0;
0@
1I
0D
1A
0G
0<
0/
0"
#445000
1!
11
1?
1;
1@
0I
#450000
0!
01
0?
0;
0@
1I
1D
0H
0A
0=
1<
02
1/
0#
1"
#455000
1!
11
1?
1;
1@
0I
#460000
0!
01
0?
0;
0@
1I
0D
1A
1E
0<
0/
0"
#465000
1!
11
1?
1;
1@
0I
#470000
0!
01
0?
0;
0@
1I
1D
1F
0A
1>
1<
13
1/
1$
1"
#475000
1!
11
1?
1;
1@
0I
#480000
0!
01
0?
0;
0@
1I
0D
1A
0E
1G
0<
0/
0"
#485000
1!
11
1?
1;
1@
0I
#490000
0!
01
0?
0;
0@
1I
1D
0F
1H
0A
1=
0>
1<
12
03
1/
1#
0$
1"
#495000
1!
11
1?
1;
1@
0I
#500000
0!
01
0?
0;
0@
1I
0D
1A
0G
0<
0/
0"
#505000
1!
11
1?
1;
1@
0I
#510000
0!
01
0?
0;
0@
1I
1D
0H
0A
0=
1<
02
1/
0#
1"
#515000
1!
11
1?
1;
1@
0I
#520000
0!
01
0?
0;
0@
1I
0D
1A
1E
0<
0/
0"
#525000
1!
11
1?
1;
1@
0I
#530000
0!
01
0?
0;
0@
1I
1D
1F
0A
1>
1<
13
1/
1$
1"
#535000
1!
11
1?
1;
1@
0I
#540000
0!
01
0?
0;
0@
1I
0D
1A
0E
1G
0<
0/
0"
#545000
1!
11
1?
1;
1@
0I
#550000
0!
01
0?
0;
0@
1I
1D
0F
1H
0A
1=
0>
1<
12
03
1/
1#
0$
1"
#555000
1!
11
1?
1;
1@
0I
#560000
0!
01
0?
0;
0@
1I
0D
1A
0G
0<
0/
0"
#565000
1!
11
1?
1;
1@
0I
#570000
0!
01
0?
0;
0@
1I
1D
0H
0A
0=
1<
02
1/
0#
1"
#575000
1!
11
1?
1;
1@
0I
#580000
0!
01
0?
0;
0@
1I
0D
1A
1E
0<
0/
0"
#585000
1!
11
1?
1;
1@
0I
#590000
0!
01
0?
0;
0@
1I
1D
1F
0A
1>
1<
13
1/
1$
1"
#595000
1!
11
1?
1;
1@
0I
#600000
0!
01
0?
0;
0@
1I
0D
1A
0E
1G
0<
0/
0"
#605000
1!
11
1?
1;
1@
0I
#610000
0!
01
0?
0;
0@
1I
1D
0F
1H
0A
1=
0>
1<
12
03
1/
1#
0$
1"
#615000
1!
11
1?
1;
1@
0I
#620000
0!
01
0?
0;
0@
1I
0D
1A
0G
0<
0/
0"
#625000
1!
11
1?
1;
1@
0I
#630000
0!
01
0?
0;
0@
1I
1D
0H
0A
0=
1<
02
1/
0#
1"
#635000
1!
11
1?
1;
1@
0I
#640000
0!
01
0?
0;
0@
1I
0D
1A
1E
0<
0/
0"
#645000
1!
11
1?
1;
1@
0I
#650000
0!
01
0?
0;
0@
1I
1D
1F
0A
1>
1<
13
1/
1$
1"
#655000
1!
11
1?
1;
1@
0I
#660000
0!
01
0?
0;
0@
1I
0D
1A
0E
1G
0<
0/
0"
#665000
1!
11
1?
1;
1@
0I
#670000
0!
01
0?
0;
0@
1I
1D
0F
1H
0A
1=
0>
1<
12
03
1/
1#
0$
1"
#675000
1!
11
1?
1;
1@
0I
#680000
0!
01
0?
0;
0@
1I
0D
1A
0G
0<
0/
0"
#685000
1!
11
1?
1;
1@
0I
#690000
0!
01
0?
0;
0@
1I
1D
0H
0A
0=
1<
02
1/
0#
1"
#695000
1!
11
1?
1;
1@
0I
#700000
0!
01
0?
0;
0@
1I
0D
1A
1E
0<
0/
0"
#705000
1!
11
1?
1;
1@
0I
#710000
0!
01
0?
0;
0@
1I
1D
1F
0A
1>
1<
13
1/
1$
1"
#715000
1!
11
1?
1;
1@
0I
#720000
0!
01
0?
0;
0@
1I
0D
1A
0E
1G
0<
0/
0"
#725000
1!
11
1?
1;
1@
0I
#730000
0!
01
0?
0;
0@
1I
1D
0F
1H
0A
1=
0>
1<
12
03
1/
1#
0$
1"
#735000
1!
11
1?
1;
1@
0I
#740000
0!
01
0?
0;
0@
1I
0D
1A
0G
0<
0/
0"
#745000
1!
11
1?
1;
1@
0I
#750000
0!
01
0?
0;
0@
1I
1D
0H
0A
0=
1<
02
1/
0#
1"
#755000
1!
11
1?
1;
1@
0I
#760000
0!
01
0?
0;
0@
1I
0D
1A
1E
0<
0/
0"
#765000
1!
11
1?
1;
1@
0I
#770000
0!
01
0?
0;
0@
1I
1D
1F
0A
1>
1<
13
1/
1$
1"
#775000
1!
11
1?
1;
1@
0I
#780000
0!
01
0?
0;
0@
1I
0D
1A
0E
1G
0<
0/
0"
#785000
1!
11
1?
1;
1@
0I
#790000
0!
01
0?
0;
0@
1I
1D
0F
1H
0A
1=
0>
1<
12
03
1/
1#
0$
1"
#795000
1!
11
1?
1;
1@
0I
#800000
0!
01
0?
0;
0@
1I
0D
1A
0G
0<
0/
0"
#805000
1!
11
1?
1;
1@
0I
#810000
0!
01
0?
0;
0@
1I
1D
0H
0A
0=
1<
02
1/
0#
1"
#815000
1!
11
1?
1;
1@
0I
#820000
0!
01
0?
0;
0@
1I
0D
1A
1E
0<
0/
0"
#825000
1!
11
1?
1;
1@
0I
#830000
0!
01
0?
0;
0@
1I
1D
1F
0A
1>
1<
13
1/
1$
1"
#835000
1!
11
1?
1;
1@
0I
#840000
0!
01
0?
0;
0@
1I
0D
1A
0E
1G
0<
0/
0"
#845000
1!
11
1?
1;
1@
0I
#850000
0!
01
0?
0;
0@
1I
1D
0F
1H
0A
1=
0>
1<
12
03
1/
1#
0$
1"
#855000
1!
11
1?
1;
1@
0I
#860000
0!
01
0?
0;
0@
1I
0D
1A
0G
0<
0/
0"
#865000
1!
11
1?
1;
1@
0I
#870000
0!
01
0?
0;
0@
1I
1D
0H
0A
0=
1<
02
1/
0#
1"
#875000
1!
11
1?
1;
1@
0I
#880000
0!
01
0?
0;
0@
1I
0D
1A
1E
0<
0/
0"
#885000
1!
11
1?
1;
1@
0I
#890000
0!
01
0?
0;
0@
1I
1D
1F
0A
1>
1<
13
1/
1$
1"
#895000
1!
11
1?
1;
1@
0I
#900000
0!
01
0?
0;
0@
1I
0D
1A
0E
1G
0<
0/
0"
#905000
1!
11
1?
1;
1@
0I
#910000
0!
01
0?
0;
0@
1I
1D
0F
1H
0A
1=
0>
1<
12
03
1/
1#
0$
1"
#915000
1!
11
1?
1;
1@
0I
#920000
0!
01
0?
0;
0@
1I
0D
1A
0G
0<
0/
0"
#925000
1!
11
1?
1;
1@
0I
#930000
0!
01
0?
0;
0@
1I
1D
0H
0A
0=
1<
02
1/
0#
1"
#935000
1!
11
1?
1;
1@
0I
#940000
0!
01
0?
0;
0@
1I
0D
1A
1E
0<
0/
0"
#945000
1!
11
1?
1;
1@
0I
#950000
0!
01
0?
0;
0@
1I
1D
1F
0A
1>
1<
13
1/
1$
1"
#955000
1!
11
1?
1;
1@
0I
#960000
0!
01
0?
0;
0@
1I
0D
1A
0E
1G
0<
0/
0"
#965000
1!
11
1?
1;
1@
0I
#970000
0!
01
0?
0;
0@
1I
1D
0F
1H
0A
1=
0>
1<
12
03
1/
1#
0$
1"
#975000
1!
11
1?
1;
1@
0I
#980000
0!
01
0?
0;
0@
1I
0D
1A
0G
0<
0/
0"
#985000
1!
11
1?
1;
1@
0I
#990000
0!
01
0?
0;
0@
1I
1D
0H
0A
0=
1<
02
1/
0#
1"
#995000
1!
11
1?
1;
1@
0I
